Call Date,ANI,Call Duration(sec),Call Duration(min),Called Number,Originating Carrier
2016-04-15 17:54:39,00421949238597,6.585,0.10975000000000000000,39279288,O2_CETIN_NNI_2
2016-04-15 21:14:58,00420604282743,92.148,1.5358000000000000,39705327,O2_CETIN_NNI_2
2016-04-16 21:24:06,00421949710848,205.427,3.4237833333333333,36063999,O2_CETIN_NNI_1
2016-04-17 20:27:11,00421949710848,237.673,3.9612166666666667,36063999,O2_CETIN_NNI_2
2016-04-17 21:05:48,00420288804664,841.302,14.0217000000000000,39591824,O2_CETIN_NNI_1
2016-04-19 10:45:10,00421949238597,103.608,1.7268000000000000,39279288,O2_CETIN_NNI_2
2016-04-19 11:21:26,0079672279698,97.350,1.6225000000000000,37718663,O2_CETIN_NNI_2
2016-04-19 16:36:21,00420602375561,118.788,1.9798000000000000,39154114,O2_CETIN_NNI_1
2016-04-19 19:16:51,00971503511085,18.526,0.30876666666666666667,37717454,O2_CETIN_NNI_2
2016-04-19 21:56:25,00420288803615,49.269,0.82115000000000000000,36061646,O2_CETIN_NNI_1
2016-04-20 07:56:40,00420777667957,380.258,6.3376333333333333,37717782,O2_CETIN_NNI_2
2016-04-20 08:03:39,00420777667957,69.416,1.1569333333333333,37718185,O2_CETIN_NNI_2
2016-04-20 08:35:03,00385993353486,206.954,3.4492333333333333,39706805,O2_CETIN_NNI_1
2016-04-20 10:47:40,0038641667209,1046.603,17.4433833333333333,39706630,O2_CETIN_NNI_1
2016-04-20 11:10:29,00420602155966,126.574,2.1095666666666667,39706791,O2_CETIN_NNI_2
2016-04-20 12:38:20,00213555980778,79.958,1.3326333333333333,39706774,O2_CETIN_NNI_2
2016-04-20 13:41:35,00421949499434,14.830,0.24716666666666666667,39137040,O2_CETIN_NNI_1
2016-04-20 14:48:53,00420776801353,104.596,1.7432666666666667,39706663,O2_CETIN_NNI_2
2016-04-20 14:52:52,00420602246244,1.781,0.02968333333333333333,39701808,O2_CETIN_NNI_2
2016-04-20 14:53:11,00420602246244,230.422,3.8403666666666667,39701188,O2_CETIN_NNI_1
2016-04-20 20:01:26,00420608281371,289.970,4.8328333333333333,39706967,O2_CETIN_NNI_1
2016-04-21 09:16:19,00421944364045,100.362,1.6727000000000000,39559648,O2_CETIN_NNI_2
2016-04-21 10:46:55,0038631307415,827.127,13.7854500000000000,39701827,O2_CETIN_NNI_2
2016-04-21 13:16:45,00420602155973,193.797,3.2299500000000000,39701038,O2_CETIN_NNI_1
2016-04-21 13:38:01,00421949238597,46.013,0.76688333333333333333,39279288,O2_CETIN_NNI_2
2016-04-21 13:40:54,0046522440889,218.099,3.6349833333333333,39701113,O2_CETIN_NNI_1
2016-04-21 13:50:08,00420220511900,19.839,0.33065000000000000000,36629393,O2_CETIN_NNI_2
2016-04-21 13:53:28,00420220511900,19.413,0.32355000000000000000,36629393,O2_CETIN_NNI_1
2016-04-21 16:20:10,00421949238597,8.217,0.13695000000000000000,39279288,O2_CETIN_NNI_2
2016-04-21 19:50:40,00420603458335,100.377,1.6729500000000000,39701372,O2_CETIN_NNI_1
2016-04-22 09:06:07,00420731473387,204.975,3.4162500000000000,39701503,O2_CETIN_NNI_2
2016-04-22 13:32:46,00420724088936,285.520,4.7586666666666667,39015551,O2_CETIN_NNI_1
2016-04-22 18:43:26,00420602223824,7.018,0.11696666666666666667,39650172,O2_CETIN_NNI_2
2016-04-22 18:44:20,00420602223824,14.081,0.23468333333333333333,39650172,O2_CETIN_NNI_1
2016-04-22 18:47:49,00420602223824,5.558,0.09263333333333333333,39650172,O2_CETIN_NNI_2
2016-04-22 19:21:00,00420739545262,86.157,1.4359500000000000,39080162,O2_CETIN_NNI_1
2016-04-24 12:19:41,00420266710722,37.678,0.62796666666666666667,36629393,O2_CETIN_NNI_2
2016-04-24 12:21:18,00420266710722,37.667,0.62778333333333333333,36629393,O2_CETIN_NNI_1
2016-04-25 10:18:33,00420266710722,91.526,1.5254333333333333,36629393,O2_CETIN_NNI_2
2016-04-25 11:33:12,00420238461752,62.086,1.0347666666666667,39658100,O2_CETIN_NNI_1
2016-04-25 11:36:17,00420731473387,95.918,1.5986333333333333,39704654,O2_CETIN_NNI_1
2016-04-25 14:36:53,00420296587249,168.075,2.8012500000000000,39441423,O2_CETIN_NNI_1
2016-04-26 12:30:55,00971506246003,301.174,5.0195666666666667,38821288,O2_CETIN_NNI_2
2016-04-26 12:59:35,00420296587249,197.419,3.2903166666666667,36043039,O2_CETIN_NNI_2
2016-04-26 15:02:04,00905331624545,398.890,6.6481666666666667,39275019,O2_CETIN_NNI_1
2016-04-26 15:15:32,00905331624545,16.448,0.27413333333333333333,36631126,O2_CETIN_NNI_1
2016-04-26 15:16:08,00905331624545,105.888,1.7648000000000000,36631126,O2_CETIN_NNI_2
2016-04-26 15:25:06,00905331624545,78.706,1.3117666666666667,36883316,O2_CETIN_NNI_2
2016-04-26 15:27:02,00905331624545,53.559,0.89265000000000000000,36533778,O2_CETIN_NNI_1
2016-04-26 18:33:23,00421948588522,77.551,1.2925166666666667,35927403,O2_CETIN_NNI_2
2016-04-28 15:25:45,00421949710848,29.192,0.48653333333333333333,36063999,O2_CETIN_NNI_1
2016-04-29 11:33:24,00905331624545,17.307,0.28845000000000000000,36883316,O2_CETIN_NNI_2
2016-04-29 14:04:36,00905331624545,82.297,1.3716166666666667,36303736,O2_CETIN_NNI_2
2016-04-29 14:06:41,00905331624545,163.729,2.7288166666666667,36631126,O2_CETIN_NNI_1
2016-04-29 14:09:50,00905331624545,43.359,0.72265000000000000000,36883316,O2_CETIN_NNI_2
2016-04-29 14:10:59,00905331624545,229.813,3.8302166666666667,36883316,O2_CETIN_NNI_1
2016-04-29 14:15:11,00905331624545,103.746,1.7291000000000000,36533778,O2_CETIN_NNI_1
2016-04-29 15:09:01,00420778727852,17.956,0.29926666666666666667,37716631,O2_CETIN_NNI_1
2016-05-03 14:16:10,00971503511085,161.354,2.6892333333333333,39787444,O2_CETIN_NNI_2
2016-05-05 09:35:40,0041797687457,65.856,1.0976000000000000,39635599,O2_CETIN_NNI_2
2016-05-05 13:25:09,0041797687457,27.997,0.46661666666666666667,39635599,O2_CETIN_NNI_1
2016-05-05 13:51:07,00420720036662,28.086,0.46810000000000000000,39705225,O2_CETIN_NNI_2
2016-05-05 14:15:43,00420777819647,151.333,2.5222166666666667,39704062,O2_CETIN_NNI_1
2016-05-05 17:39:41,00420720036662,70.586,1.1764333333333333,39704875,O2_CETIN_NNI_2
2016-05-06 16:16:50,00420224013111,457.176,7.6196000000000000,39099140,O2_CETIN_NNI_1
2016-05-06 16:40:30,00420604966696,670.856,11.1809333333333333,39082161,O2_CETIN_NNI_1
2016-05-06 16:41:21,00420224013111,1503.032,25.0505333333333333,39099140,O2_CETIN_NNI_1
2016-05-07 17:02:47,00358405170931,218.458,3.6409666666666667,39355583,O2_CETIN_NNI_1
2016-05-14 17:29:52,00421905803309,95.727,1.5954500000000000,33320099,O2_CETIN_NNI_2
2016-05-08 09:34:38,00420731473387,628.746,10.4791000000000000,39705761,O2_CETIN_NNI_2
2016-05-08 11:18:01,00420608230066,79.047,1.3174500000000000,39704129,O2_CETIN_NNI_1
2016-05-08 12:26:24,00420608230066,103.508,1.7251333333333333,39705457,O2_CETIN_NNI_1
2016-05-09 08:58:30,00421944364045,92.734,1.5455666666666667,39559648,O2_CETIN_NNI_1
2016-05-09 15:30:22,00420606021511,111.723,1.8620500000000000,39264290,O2_CETIN_NNI_2
2016-05-10 13:07:32,00420731473387,316.420,5.2736666666666667,39704582,O2_CETIN_NNI_1
2016-05-10 15:13:32,00421949880496,38.157,0.63595000000000000000,39429494,O2_CETIN_NNI_1
2016-05-10 15:29:23,00966555444778,3.047,0.05078333333333333333,39429494,O2_CETIN_NNI_2
2016-05-11 15:04:21,00421948337029,127.741,2.1290166666666667,39677575,O2_CETIN_NNI_1
2016-05-11 17:49:49,00421949710848,0.315,0.00525000000000000000,36063999,O2_CETIN_NNI_1
2016-05-11 18:25:17,00447471147158,1830.407,30.5067833333333333,38347266,O2_CETIN_NNI_2
2016-05-12 07:16:19,00381631125338,17.109,0.28515000000000000000,38877646,O2_CETIN_NNI_2
2016-05-12 07:23:52,00381631125338,7.999,0.13331666666666666667,38877646,O2_CETIN_NNI_1
2016-05-12 09:23:54,00381631125338,10.261,0.17101666666666666667,38877646,O2_CETIN_NNI_2
2016-05-12 10:05:45,00421949529918,234.526,3.9087666666666667,39630011,O2_CETIN_NNI_1
2016-05-12 12:59:11,00420724422625,27.729,0.46215000000000000000,39705527,O2_CETIN_NNI_1
2016-05-12 17:07:39,00420731473387,129.843,2.1640500000000000,39701960,O2_CETIN_NNI_2
2016-05-12 17:35:19,00420731473387,93.183,1.5530500000000000,39706111,O2_CETIN_NNI_1
2016-05-12 21:54:43,00447342026093,898.371,14.9728500000000000,38347266,O2_CETIN_NNI_1
2016-05-13 17:30:31,00420602208468,43.813,0.73021666666666666667,39195673,O2_CETIN_NNI_2
2016-05-13 18:13:16,00447342026093,3601.116,60.0186000000000000,38347266,O2_CETIN_NNI_2
2016-05-13 19:13:45,00447342026093,665.255,11.0875833333333333,38347266,O2_CETIN_NNI_2
2016-05-14 21:54:45,00971506443163,42.332,0.70553333333333333333,39429494,O2_CETIN_NNI_1
2016-05-15 18:16:54,00971506443163,7.825,0.13041666666666666667,39429494,O2_CETIN_NNI_1
2016-05-15 19:21:53,00381631125338,24.621,0.41035000000000000000,38877646,O2_CETIN_NNI_1
2016-05-16 14:07:00,00420220515789,7.561,0.12601666666666666667,39945239,O2_CETIN_NNI_2
2016-05-17 15:12:33,00420602229563,53.496,0.89160000000000000000,38358075,O2_CETIN_NNI_1
2016-05-18 09:50:51,00420602229563,187.230,3.1205000000000000,38358075,O2_CETIN_NNI_2
2016-05-18 12:25:23,00420257118852,78.509,1.3084833333333333,39276267,O2_CETIN_NNI_1
2016-05-18 14:12:34,00420257118852,41.661,0.69435000000000000000,39276267,O2_CETIN_NNI_1
2016-05-19 17:26:10,00420602229563,40.200,0.67000000000000000000,38358075,O2_CETIN_NNI_1
2016-05-20 15:26:07,00420725731240,25.566,0.42610000000000000000,36621199,O2_CETIN_NNI_1
2016-05-21 15:22:19,00420727937998,29.732,0.49553333333333333333,36295634,O2_CETIN_NNI_1
2016-05-21 15:26:13,00420727937998,35.718,0.59530000000000000000,36295634,O2_CETIN_NNI_1
2016-05-23 12:59:17,00420244020220,43.820,0.73033333333333333333,39705705,O2_CETIN_NNI_1
2016-05-23 13:15:57,00420732800946,129.296,2.1549333333333333,39704846,O2_CETIN_NNI_2
2016-05-23 13:30:04,00420377517756,202.692,3.3782000000000000,32201331,O2_CETIN_NNI_1
2016-05-23 22:51:13,00421949499434,1.213,0.02021666666666666667,39137040,O2_CETIN_NNI_1
2016-05-24 19:00:07,00447908531651,45.470,0.75783333333333333333,39468070,O2_CETIN_NNI_2
2016-05-25 10:30:55,00420724013330,833.492,13.8915333333333333,39705332,O2_CETIN_NNI_2
2016-05-25 10:52:38,00420553663707,107.567,1.7927833333333333,38386289,O2_CETIN_NNI_1
2016-05-25 18:02:47,00966505923473,157.777,2.6296166666666667,38175737,O2_CETIN_NNI_2
2016-05-25 19:07:00,00421949499434,3.766,0.06276666666666666667,39137040,O2_CETIN_NNI_1
2016-05-25 19:20:40,0096896774234,250.148,4.1691333333333333,39604479,O2_CETIN_NNI_1
2016-05-25 19:28:19,00420728302397,1294.095,21.5682500000000000,39705748,O2_CETIN_NNI_2
2016-05-25 23:49:11,Unavailable,282.978,4.7163000000000000,39704520,O2_CETIN_NNI_1
2016-05-26 09:59:56,00420602375561,21.812,0.36353333333333333333,39154114,O2_CETIN_NNI_2
2016-05-26 10:08:41,00420726132530,65.410,1.0901666666666667,39705700,O2_CETIN_NNI_1
2016-05-26 10:47:43,00420606021511,616.200,10.2700000000000000,39624821,O2_CETIN_NNI_2
2016-05-26 12:31:51,00420775617331,167.063,2.7843833333333333,39704518,O2_CETIN_NNI_2
2016-05-26 13:45:35,00447973767998,862.966,14.3827666666666667,39705411,O2_CETIN_NNI_1
2016-05-26 15:02:18,00420288803864,168.264,2.8044000000000000,36061117,O2_CETIN_NNI_2
2016-05-26 17:05:00,00420221011503,15.760,0.26266666666666666667,39267380,O2_CETIN_NNI_2
2016-05-26 17:09:07,Unavailable,48.686,0.81143333333333333333,39704533,O2_CETIN_NNI_1
2016-05-26 18:00:52,00447968078455,1082.266,18.0377666666666667,39705983,O2_CETIN_NNI_2
2016-05-26 18:18:52,00420726132530,415.370,6.9228333333333333,39704938,O2_CETIN_NNI_1
2016-05-26 18:43:07,00447968078455,274.474,4.5745666666666667,39705489,O2_CETIN_NNI_2
2016-05-26 22:10:55,Unavailable,1800.852,30.0142000000000000,39705812,O2_CETIN_NNI_2
2016-05-26 22:43:13,Unavailable,2963.766,49.3961000000000000,39705402,O2_CETIN_NNI_2
2016-05-26 23:41:52,00447968078455,93.447,1.5574500000000000,39705642,O2_CETIN_NNI_1
2016-05-28 13:15:06,00447342026093,1721.084,28.6847333333333333,38347266,O2_CETIN_NNI_1
2016-05-28 18:05:35,00420602466612,104.227,1.7371166666666667,39404400,O2_CETIN_NNI_1
2016-05-28 18:08:31,00420602466612,112.595,1.8765833333333333,39330700,O2_CETIN_NNI_2
2016-05-29 00:21:36,00420702077277,37.639,0.62731666666666666667,39705843,O2_CETIN_NNI_2
2016-05-29 11:30:22,00420602375561,74.987,1.2497833333333333,39655659,O2_CETIN_NNI_1
2016-05-29 20:06:05,00420604382797,3.995,0.06658333333333333333,39438885,O2_CETIN_NNI_1
2016-05-29 22:01:37,00421949898597,19.106,0.31843333333333333333,39429494,O2_CETIN_NNI_1
2016-05-30 11:11:30,00420602466612,6.646,0.11076666666666666667,39330700,O2_CETIN_NNI_2
2016-05-30 13:32:20,00421949852499,156.065,2.6010833333333333,39699957,O2_CETIN_NNI_2
2016-05-30 17:19:19,00420601354522,28.707,0.47845000000000000000,39701543,O2_CETIN_NNI_1
2016-05-30 17:55:24,00420602235733,1.303,0.02171666666666666667,39650172,O2_CETIN_NNI_2
2016-05-30 17:56:01,00420602235733,29.170,0.48616666666666666667,39404400,O2_CETIN_NNI_2
2016-05-30 19:25:39,00420515232243,867.613,14.4602166666666667,39706650,O2_CETIN_NNI_1
2016-05-30 23:32:16,Unavailable,99.539,1.6589833333333333,39706486,O2_CETIN_NNI_2
2016-06-01 08:48:56,00421902666209,5.515,0.09191666666666666667,38717844,O2_CETIN_NNI_2
2016-06-01 11:17:50,00421944438335,67.434,1.1239000000000000,36966204,O2_CETIN_NNI_1
2016-06-01 12:56:07,00420601354522,1018.826,16.9804333333333333,39706065,O2_CETIN_NNI_1
2016-06-01 13:37:08,00420601354522,35.627,0.59378333333333333333,39701901,O2_CETIN_NNI_1
2016-06-01 13:54:39,00420601354522,116.148,1.9358000000000000,39701766,O2_CETIN_NNI_2
2016-06-01 14:35:15,00420601354522,108.277,1.8046166666666667,39706668,O2_CETIN_NNI_2
2016-06-01 16:16:30,00491705467645,234.005,3.9000833333333333,39706190,O2_CETIN_NNI_1
2016-06-01 16:47:35,00420606021511,5.727,0.09545000000000000000,39264290,O2_CETIN_NNI_2
2016-06-01 19:06:16,00447342026093,1807.334,30.1222333333333333,38347266,O2_CETIN_NNI_1
2016-06-01 21:50:59,00420702077277,23.309,0.38848333333333333333,39706634,O2_CETIN_NNI_1
2016-06-02 10:27:00,00966504750488,10.957,0.18261666666666666667,39302525,O2_CETIN_NNI_2
2016-06-02 20:03:24,00447342026093,749.703,12.4950500000000000,38347266,O2_CETIN_NNI_1
2016-06-03 16:16:10,0033184227208,129.596,2.1599333333333333,37716758,O2_CETIN_NNI_1
2016-06-03 16:19:37,0033184227929,248.983,4.1497166666666667,37716914,O2_CETIN_NNI_2
2016-06-03 17:49:00,00447342026093,1366.991,22.7831833333333333,38347266,O2_CETIN_NNI_1
2016-06-04 13:30:52,00447342026093,36.318,0.60530000000000000000,38347266,O2_CETIN_NNI_2
2016-06-04 22:06:59,00420606524141,400.094,6.6682333333333333,37717012,O2_CETIN_NNI_2
2016-06-05 11:06:09,00447342026093,921.728,15.3621333333333333,38347266,O2_CETIN_NNI_2
2016-06-05 11:58:16,00971508121206,152.336,2.5389333333333333,36030086,O2_CETIN_NNI_1
2016-06-06 13:20:41,00420601354365,106.766,1.7794333333333333,39972442,O2_CETIN_NNI_2
2016-06-07 10:08:14,00421944438336,232.873,3.8812166666666667,36966204,O2_CETIN_NNI_1
2016-06-07 21:28:39,00447342026093,738.183,12.3030500000000000,38347266,O2_CETIN_NNI_1
2016-06-10 12:07:21,00421918461504,25.964,0.43273333333333333333,34317788,O2_CETIN_NNI_2
2016-06-10 14:48:42,00420541247804,20.125,0.33541666666666666667,17588588,O2_CETIN_NNI_2
2016-06-10 14:49:31,00420541247804,3.472,0.05786666666666666667,17588588,O2_CETIN_NNI_2
2016-06-10 14:50:14,00420541247804,7.429,0.12381666666666666667,17588588,O2_CETIN_NNI_1
2016-06-10 16:30:23,00420728033852,11.776,0.19626666666666666667,39548203,O2_CETIN_NNI_1
2016-06-10 19:31:12,00447342026093,1733.225,28.8870833333333333,38347266,O2_CETIN_NNI_1
2016-06-12 14:37:29,0096899288959,46.531,0.77551666666666666667,39701231,O2_CETIN_NNI_1
2016-06-15 13:02:33,00420601354365,114.623,1.9103833333333333,39972442,O2_CETIN_NNI_1
2016-06-15 15:51:56,00420602809031,132.186,2.2031000000000000,39071094,O2_CETIN_NNI_2
2016-06-15 17:26:08,00420602809031,68.499,1.1416500000000000,39071094,O2_CETIN_NNI_1
2016-06-17 16:48:20,00447342026093,653.708,10.8951333333333333,38347266,O2_CETIN_NNI_2
2016-06-18 12:40:25,00420602235733,19.399,0.32331666666666666667,39650172,O2_CETIN_NNI_1
2016-06-18 13:03:03,00971556309082,31.658,0.52763333333333333333,39958042,O2_CETIN_NNI_2
2016-06-18 20:36:47,00447342026093,1057.854,17.6309000000000000,38347266,O2_CETIN_NNI_1
2016-06-19 00:48:57,00971556309082,255.800,4.2633333333333333,39958042,O2_CETIN_NNI_1
2016-06-19 11:32:57,00971556309082,43.262,0.72103333333333333333,39958042,O2_CETIN_NNI_1
2016-06-20 11:31:55,00420602466612,136.522,2.2753666666666667,39650172,O2_CETIN_NNI_2
2016-06-20 15:32:11,00420602235733,106.737,1.7789500000000000,39650172,O2_CETIN_NNI_1
2016-06-21 15:44:35,00421948181397,365.351,6.0891833333333333,36595976,O2_CETIN_NNI_2
2016-06-22 12:44:15,00971526196022,21.394,0.35656666666666666667,39262923,O2_CETIN_NNI_2
2016-06-22 12:46:44,00971556309082,16.432,0.27386666666666666667,39958042,O2_CETIN_NNI_2
2016-06-23 13:30:43,00421944438336,108.864,1.8144000000000000,36966204,O2_CETIN_NNI_1
2016-06-23 13:42:42,00421944438336,128.026,2.1337666666666667,36966204,O2_CETIN_NNI_2
2016-06-23 17:59:06,00420271480738,359.301,5.9883500000000000,39701072,O2_CETIN_NNI_2
2016-06-23 18:19:49,00420602223824,93.597,1.5599500000000000,39650172,O2_CETIN_NNI_1
2016-06-24 09:51:10,00420602466612,3.592,0.05986666666666666667,39650172,O2_CETIN_NNI_1
2016-06-24 09:52:15,00420602466612,95.042,1.5840333333333333,39650172,O2_CETIN_NNI_2
2016-06-24 20:43:20,00447342026093,31.941,0.53235000000000000000,38347266,O2_CETIN_NNI_2
2016-06-26 15:34:52,00421944317546,5.540,0.09233333333333333333,36050027,O2_CETIN_NNI_2
2016-06-26 20:45:55,00420724278034,33.524,0.55873333333333333333,39706284,O2_CETIN_NNI_2
2016-06-26 20:46:53,0096898073072,79.930,1.3321666666666667,39706931,O2_CETIN_NNI_1
2016-06-26 20:50:22,00420724177881,209.919,3.4986500000000000,39706242,O2_CETIN_NNI_2
2016-06-26 20:55:31,0096898073072,50.767,0.84611666666666666667,39701660,O2_CETIN_NNI_1
2016-06-27 09:59:53,00420602235733,116.917,1.9486166666666667,39650172,O2_CETIN_NNI_1
2016-06-27 20:50:54,00420565533729,289.106,4.8184333333333333,39701694,O2_CETIN_NNI_1
2016-06-29 16:57:05,00447342078411,188.764,3.1460666666666667,39600286,O2_CETIN_NNI_1
2016-06-29 20:20:14,00421903888828,1.725,0.02875000000000000000,39453577,O2_CETIN_NNI_2
2016-06-30 10:15:43,00447342078411,224.505,3.7417500000000000,39600286,O2_CETIN_NNI_2
2016-06-30 12:42:02,00447342078411,5.696,0.09493333333333333333,39600286,O2_CETIN_NNI_2
