Source,Minutes,Rate (BHD),Charges (BHD)
Viva Mobile,2.1390000000000002,0.06,0.12834
Batelco Mobile,392.4987499999999,0.06,23.549925
Zain Mobile,372.66704999999985,0.06,22.360023
Total,,0,767.3,,46.04
