Call Date,ANI,Call Duration,Called Number,Originating Carrier
2016-07-19 09:30:35,0000,108.029,919829079502,HDFC_PBX
2016-07-19 10:17:42,0000,567.441,912233427000,HDFC_PBX
2016-07-19 17:15:11,0000,0.000,911412700821,HDFC_PBX
2016-07-19 17:15:49,0000,515.919,919829079502,HDFC_PBX
