Call Date,ANI,Call Duration,Called Number,Originating Carrier
2014-07-02 09:04:11,0000,0.000,39419350,HDFC_PBX
2014-07-02 09:04:40,0000,0.000,39419350,HDFC_PBX
2014-07-02 09:05:04,0000,129.589,36586058,HDFC_PBX
2014-07-02 09:13:36,0000,0.000,39419350,HDFC_PBX
2014-07-02 10:47:59,0000,211.566,36586058,HDFC_PBX
2014-07-02 18:28:43,0000,91.359,919560900451,HDFC_PBX
2014-07-02 18:20:16,0000,123.611,919022599935,HDFC_PBX
2014-07-02 18:24:50,0000,0.000,0,HDFC_PBX
2014-07-02 18:24:59,0000,0.000,918879731999,HDFC_PBX
2014-07-03 08:54:13,0000,0.000,39261679,HDFC_PBX
2014-07-03 13:45:38,0000,0.000,918879731999,HDFC_PBX
2014-07-03 13:46:24,0000,56.831,918879731999,HDFC_PBX
2014-07-03 13:50:36,0000,149.919,919833364740,HDFC_PBX
2014-07-03 12:47:31,0000,28.408,918879731999,HDFC_PBX
2014-07-03 11:35:16,0000,0.000,0,HDFC_PBX
2014-07-03 11:35:25,0000,0.000,918879731999,HDFC_PBX
2014-07-03 11:36:28,0000,0.000,918733,HDFC_PBX
2014-07-03 11:36:36,0000,0.000,918,HDFC_PBX
2014-07-03 11:36:42,0000,0.000,,HDFC_PBX
2014-07-03 11:36:55,0000,0.000,919873366895,HDFC_PBX
2014-07-03 11:37:42,0000,0.000,918879731999,HDFC_PBX
2014-07-03 11:44:25,0000,36.653,919022599935,HDFC_PBX
2014-07-03 11:45:30,0000,199.694,919022599935,HDFC_PBX
2014-07-03 12:15:35,0000,0.000,918879731999,HDFC_PBX
2014-07-03 19:35:26,0000,118.381,919022599935,HDFC_PBX
2014-07-03 20:23:09,0000,0.000,918879731999,HDFC_PBX
2014-07-03 18:31:13,0000,0.000,919022599935,HDFC_PBX
2014-07-03 18:31:56,0000,0.000,91,HDFC_PBX
2014-07-03 18:32:09,0000,58.762,919820114612,HDFC_PBX
2014-07-03 20:32:58,0000,0.000,918879731999,HDFC_PBX
2014-07-04 09:31:42,0000,61.770,919022599935,HDFC_PBX
2014-07-04 09:33:25,0000,128.369,919022599935,HDFC_PBX
2014-07-04 18:59:46,0000,112.139,919022599935,HDFC_PBX
2014-07-04 19:02:14,0000,44.082,919022599935,HDFC_PBX
2014-07-07 11:32:34,0000,0.000,918879731999,HDFC_PBX
2014-07-07 14:37:26,0000,0.000,0,HDFC_PBX
2014-07-07 14:37:37,0000,0.000,918879731999,HDFC_PBX
2014-07-07 14:58:56,0000,404.867,919022599935,HDFC_PBX
2014-07-07 19:22:08,0000,14.828,919022599935,HDFC_PBX
2014-07-07 19:22:56,0000,0.000,9,HDFC_PBX
2014-07-07 19:23:04,0000,91.372,919022599935,HDFC_PBX
2014-07-27 12:37:49,0000,255.819,39975312,HDFC_PBX
