-[ RECORD 7 ]---------------------+-----------------------------------------------
start_time                        | 2008-05-31 18:13:06
start_time_int                    | 1212246786
call_duration                     | 00:00:13
originator_ip                     | 80.88.247.115
terminator_ip                     | 216.52.166.203
call_source_custid                | 
called_party_on_dst               | 80081012
called_party_on_src               | 80081012
call_type                         | IV
disconnect_error_type             | N
call_error_int                    | 0
call_error_str                    | 
ani                               | 39728579
cdr_seq_no                        | 78445824
callid                            | 3c88c1f82fed11dd821b0003baa24c23
call_hold_time                    | 00:00:03
call_source_regid                 | 2Connect_AS5400A
call_source_uport                 | 0
call_dest_regid                   | Harmony-SIP
call_dest_uport                   | 0
isdn_cause_code                   | 16
call_party_after_src_calling_plan | 80081012
call_error_dest_int               | 
call_error_dest_str               | 
new_ani                           | 39728579
call_duration_int                 | 13
incoming_leg_callid               | 
protocol                          | h323
cdr_type                          | end1
hunting_attempts                  | 1
caller_trunk_group                | 
call_pdd                          | 3
h323_dest_ras_error               | 
h323_dest_h225_error              | 
sip_dest_respcode                 | 
dest_trunk_group                  | 
call_duration_fractional          | 13.468
timezone                          | GMT-3
msw_name                          | 2Connect-msw1
price                             | 
rate_id                           | 
rate_id                           | 
cdr_file_id                       | 44377
cdr_file_line                     | 8651
clean_number                      | 80081012
zone                              | 
call_dest_custid                  | 
call_zone_data                    | 

