Country,Dial Code,Duration,Minutes,Infonas Rate(BHD),Cost(BHD)-Infonas,Cost(BHD)-Other Provider
Pakistan,92,00:01:00,1.0,0.0186,0.019,0.09
Pakistan,92,00:02:00,2.0,0.0186,0.037,0.18
Pakistan,92,00:02:00,2.0,0.0186,0.037,0.18
Seychelles,248,00:14:00,14.0,0.3907,5.47,3.5
Pakistan,92,00:01:00,1.0,0.0186,0.019,0.09
United Kingdom,44,00:02:00,2.0,0.1339,0.268,0.15
United Arab Emirates,971,00:01:00,1.0,0.0682,0.068,0.08
Pakistan,92,00:01:00,1.0,0.0186,0.019,0.09
Pakistan,92,00:05:00,5.0,0.0186,0.093,0.45
Seychelles,248,00:32:00,32.0,0.3907,12.502,8.0
Pakistan,92,00:02:00,2.0,0.0186,0.037,0.18
Pakistan,92,00:15:00,15.0,0.0186,0.279,1.35
Pakistan,92,00:03:00,3.0,0.0186,0.056,0.27
Pakistan,92,00:01:00,1.0,0.0186,0.019,0.09
United Arab Emirates,971,00:05:00,5.0,0.0682,0.341,0.4
United Arab Emirates,971,00:14:00,14.0,0.0682,0.955,1.12
Saudi Arabia,966,00:03:00,3.0,0.0538,0.161,0.24
United Arab Emirates,971,00:19:00,19.0,0.0682,1.296,1.52
Pakistan,92,00:04:00,4.0,0.0186,0.074,0.36
Pakistan,92,00:02:00,2.0,0.0186,0.037,0.18
Pakistan,92,00:02:00,2.0,0.0186,0.037,0.18
Pakistan,92,00:02:00,2.0,0.0186,0.037,0.18
United Arab Emirates,971,00:01:00,1.0,0.0682,0.068,0.08
United Arab Emirates,971,00:01:00,1.0,0.0682,0.068,0.08
United Arab Emirates,971,00:09:00,9.0,0.0682,0.614,0.72
United Arab Emirates,971,00:02:00,2.0,0.0682,0.136,0.16
United Arab Emirates,971,00:02:00,2.0,0.0682,0.136,0.16
United Arab Emirates,971,00:16:00,16.0,0.0682,1.091,1.28
United Arab Emirates,971,00:01:00,1.0,0.0682,0.068,0.08
United Arab Emirates,971,00:05:00,5.0,0.0682,0.341,0.4
United Arab Emirates,971,00:02:00,2.0,0.0682,0.136,0.16
United Arab Emirates,971,00:10:00,10.0,0.0682,0.682,0.8
United Arab Emirates,971,00:03:00,3.0,0.0682,0.205,0.24
Seychelles,248,00:13:00,13.0,0.3907,5.079,3.25
Pakistan,92,00:03:00,3.0,0.0186,0.056,0.27
Pakistan,92,00:03:00,3.0,0.0186,0.056,0.27
Pakistan,92,00:03:00,3.0,0.0186,0.056,0.27
United Arab Emirates,971,00:16:00,16.0,0.0682,1.091,1.28
Pakistan,92,00:10:00,10.0,0.0186,0.186,0.9
Pakistan,92,00:04:00,4.0,0.0186,0.074,0.36
Pakistan,92,00:01:00,1.0,0.0186,0.019,0.09
Pakistan,92,00:01:00,1.0,0.0186,0.019,0.09
India,91,00:03:00,3.0,0.0058,0.017,0.171
Seychelles,248,00:07:00,7.0,0.3907,2.735,1.75
Pakistan,92,00:01:00,1.0,0.0186,0.019,0.09
Pakistan,92,00:12:00,12.0,0.0186,0.223,1.08
Pakistan,92,00:10:00,10.0,0.0186,0.186,0.9
United Arab Emirates,971,00:06:00,6.0,0.0682,0.409,0.48
United Arab Emirates,971,00:02:00,2.0,0.0682,0.136,0.16
Pakistan,92,00:02:00,2.0,0.0186,0.037,0.18
Seychelles,248,00:37:00,37.0,0.3907,14.456,9.25
Seychelles,248,00:04:00,4.0,0.3907,1.563,1.0
Pakistan,92,00:32:00,32.0,0.0186,0.595,2.88
Pakistan,92,00:12:00,12.0,0.0186,0.223,1.08
United Arab Emirates,971,00:20:00,20.0,0.0682,1.364,1.6
United Arab Emirates,971,00:01:00,1.0,0.0682,0.068,0.08
United Arab Emirates,971,00:01:00,1.0,0.0682,0.068,0.08
United Arab Emirates,971,00:11:00,11.0,0.0682,0.75,0.88
Pakistan,92,00:03:00,3.0,0.0186,0.056,0.27
United Arab Emirates,971,00:01:00,1.0,0.0682,0.068,0.08
Seychelles,248,00:01:00,1.0,0.3907,0.391,0.25
Seychelles,248,00:49:00,49.0,0.3907,19.144,12.25
Pakistan,92,00:02:00,2.0,0.0186,0.037,0.18
Pakistan,92,00:05:00,5.0,0.0186,0.093,0.45
Pakistan,92,00:04:00,4.0,0.0186,0.074,0.36
Pakistan,92,00:01:00,1.0,0.0186,0.019,0.09
Pakistan,92,00:01:00,1.0,0.0186,0.019,0.09
Pakistan,92,00:06:00,6.0,0.0186,0.112,0.54
Seychelles,248,00:09:00,9.0,0.3907,3.516,2.25
United Kingdom,44,00:05:00,5.0,0.1339,0.669,0.375
Pakistan,92,00:05:00,5.0,0.0186,0.093,0.45
Pakistan,92,00:06:00,6.0,0.0186,0.112,0.54
Pakistan,92,00:06:00,6.0,0.0186,0.112,0.54
Pakistan,92,00:02:00,2.0,0.0186,0.037,0.18
Pakistan,92,00:01:00,1.0,0.0186,0.019,0.09
Pakistan,92,00:01:00,1.0,0.0186,0.019,0.09
Pakistan,92,00:01:00,1.0,0.0186,0.019,0.09
Pakistan,92,00:01:00,1.0,0.0186,0.019,0.09
Pakistan,92,00:03:00,3.0,0.0186,0.056,0.27
Pakistan,92,00:02:00,2.0,0.0186,0.037,0.18
United Kingdom,44,00:05:00,5.0,0.1339,0.669,0.375
Pakistan,92,00:04:00,4.0,0.0186,0.074,0.36
Pakistan,92,00:01:00,1.0,0.0186,0.019,0.09
Pakistan,92,00:04:00,4.0,0.0186,0.074,0.36
United Arab Emirates,971,00:05:00,5.0,0.0682,0.341,0.4
United Arab Emirates,971,00:14:00,14.0,0.0682,0.955,1.12
United Arab Emirates,971,00:02:00,2.0,0.0682,0.136,0.16
Pakistan,92,00:13:00,13.0,0.0186,0.242,1.17
United Arab Emirates,971,00:04:00,4.0,0.0682,0.273,0.32
United Arab Emirates,971,00:01:00,1.0,0.0682,0.068,0.08
Pakistan,92,00:04:00,4.0,0.0186,0.074,0.36
United Kingdom,44,00:12:00,12.0,0.1339,1.607,0.9
Pakistan,92,00:07:00,7.0,0.0186,0.13,0.63
Pakistan,92,00:08:00,8.0,0.0186,0.149,0.72
Pakistan,92,00:02:00,2.0,0.0186,0.037,0.18
Pakistan,92,00:02:00,2.0,0.0186,0.037,0.18
Pakistan,92,00:10:00,10.0,0.0186,0.186,0.9
Seychelles,248,00:31:00,31.0,0.3907,12.112,7.75
Pakistan,92,00:02:00,2.0,0.0186,0.037,0.18
Pakistan,92,00:01:00,1.0,0.0186,0.019,0.09
Pakistan,92,00:10:00,10.0,0.0186,0.186,0.9
Pakistan,92,00:01:00,1.0,0.0186,0.019,0.09
United Arab Emirates,971,00:09:00,9.0,0.0682,0.614,0.72
Pakistan,92,00:03:00,3.0,0.0186,0.056,0.27
Pakistan,92,00:01:00,1.0,0.0186,0.019,0.09
Pakistan,92,00:09:00,9.0,0.0186,0.167,0.81
Pakistan,92,00:01:00,1.0,0.0186,0.019,0.09
Pakistan,92,00:02:00,2.0,0.0186,0.037,0.18
Pakistan,92,00:02:00,2.0,0.0186,0.037,0.18
Pakistan,92,00:01:00,1.0,0.0186,0.019,0.09
Pakistan,92,00:02:00,2.0,0.0186,0.037,0.18
United Arab Emirates,971,00:01:00,1.0,0.0682,0.068,0.08
United Arab Emirates,971,00:04:00,4.0,0.0682,0.273,0.32
Pakistan,92,00:01:00,1.0,0.0186,0.019,0.09
United Arab Emirates,971,00:08:00,8.0,0.0682,0.546,0.64
China,86,00:06:00,6.0,0.0517,0.31,0.432
Pakistan,92,00:02:00,2.0,0.0186,0.037,0.18
United Arab Emirates,971,00:02:00,2.0,0.0682,0.136,0.16
Pakistan,92,00:08:00,8.0,0.0186,0.149,0.72
Pakistan,92,00:13:00,13.0,0.0186,0.242,1.17
Pakistan,92,00:01:00,1.0,0.0186,0.019,0.09
Pakistan,92,00:06:00,6.0,0.0186,0.112,0.54
Pakistan,92,00:02:00,2.0,0.0186,0.037,0.18
Pakistan,92,00:09:00,9.0,0.0186,0.167,0.81
Pakistan,92,00:01:00,1.0,0.0186,0.019,0.09
Pakistan,92,00:02:00,2.0,0.0186,0.037,0.18
Pakistan,92,00:11:00,11.0,0.0186,0.205,0.99
Pakistan,92,00:04:00,4.0,0.0186,0.074,0.36
Pakistan,92,00:03:00,3.0,0.0186,0.056,0.27
Pakistan,92,00:02:00,2.0,0.0186,0.037,0.18
Pakistan,92,00:02:00,2.0,0.0186,0.037,0.18
Pakistan,92,00:05:00,5.0,0.0186,0.093,0.45
Pakistan,92,00:06:00,6.0,0.0186,0.112,0.54
Pakistan,92,00:02:00,2.0,0.0186,0.037,0.18
Pakistan,92,00:02:00,2.0,0.0186,0.037,0.18
Pakistan,92,00:02:00,2.0,0.0186,0.037,0.18
Pakistan,92,00:05:00,5.0,0.0186,0.093,0.45
Pakistan,92,00:01:00,1.0,0.0186,0.019,0.09
Pakistan,92,00:01:00,1.0,0.0186,0.019,0.09
United Arab Emirates,971,00:05:00,5.0,0.0682,0.341,0.4
United Arab Emirates,971,00:01:00,1.0,0.0682,0.068,0.08
United Arab Emirates,971,00:01:00,1.0,0.0682,0.068,0.08
United Arab Emirates,971,00:01:00,1.0,0.0682,0.068,0.08
United Arab Emirates,971,00:01:00,1.0,0.0682,0.068,0.08
United Arab Emirates,971,00:02:00,2.0,0.0682,0.136,0.16
United Arab Emirates,971,00:03:00,3.0,0.0682,0.205,0.24
Pakistan,92,00:05:00,5.0,0.0186,0.093,0.45
Pakistan,92,00:01:00,1.0,0.0186,0.019,0.09
Pakistan,92,00:03:00,3.0,0.0186,0.056,0.27
Pakistan,92,00:03:00,3.0,0.0186,0.056,0.27
Pakistan,92,00:03:00,3.0,0.0186,0.056,0.27
Pakistan,92,00:02:00,2.0,0.0186,0.037,0.18
Pakistan,92,00:01:00,1.0,0.0186,0.019,0.09
United Arab Emirates,971,00:12:00,12.0,0.0682,0.818,0.96
United Arab Emirates,971,00:04:00,4.0,0.0682,0.273,0.32
United Arab Emirates,971,00:03:00,3.0,0.0682,0.205,0.24
United Arab Emirates,971,00:01:00,1.0,0.0682,0.068,0.08
Pakistan,92,00:03:00,3.0,0.0186,0.056,0.27
United Arab Emirates,971,00:01:00,1.0,0.0682,0.068,0.08
United Arab Emirates,971,00:01:00,1.0,0.0682,0.068,0.08
United Arab Emirates,971,00:01:00,1.0,0.0682,0.068,0.08
Pakistan,92,00:01:00,1.0,0.0186,0.019,0.09
United Arab Emirates,971,00:01:00,1.0,0.0682,0.068,0.08
United Arab Emirates,971,00:04:00,4.0,0.0682,0.273,0.32
United Arab Emirates,971,00:02:00,2.0,0.0682,0.136,0.16
United Arab Emirates,971,00:04:00,4.0,0.0682,0.273,0.32
Pakistan,92,00:01:00,1.0,0.0186,0.019,0.09
Pakistan,92,00:02:00,2.0,0.0186,0.037,0.18
United Kingdom,44,00:01:00,1.0,0.1339,0.134,0.075
Pakistan,92,00:05:00,5.0,0.0186,0.093,0.45
United Arab Emirates,971,00:01:00,1.0,0.0682,0.068,0.08
Pakistan,92,00:02:00,2.0,0.0186,0.037,0.18
Pakistan,92,00:03:00,3.0,0.0186,0.056,0.27
Pakistan,92,00:10:00,10.0,0.0186,0.186,0.9
Pakistan,92,00:02:00,2.0,0.0186,0.037,0.18
United Arab Emirates,971,00:01:00,1.0,0.0682,0.068,0.08
Pakistan,92,00:01:00,1.0,0.0186,0.019,0.09
United Arab Emirates,971,00:03:00,3.0,0.0682,0.205,0.24
Pakistan,92,00:01:00,1.0,0.0186,0.019,0.09
Pakistan,92,00:01:00,1.0,0.0186,0.019,0.09
United Kingdom,44,00:02:00,2.0,0.1339,0.268,0.15
Pakistan,92,00:03:00,3.0,0.0186,0.056,0.27
Pakistan,92,00:05:00,5.0,0.0186,0.093,0.45
Pakistan,92,00:03:00,3.0,0.0186,0.056,0.27
Pakistan,92,00:03:00,3.0,0.0186,0.056,0.27
Pakistan,92,00:02:00,2.0,0.0186,0.037,0.18
Pakistan,92,00:03:00,3.0,0.0186,0.056,0.27
Pakistan,92,00:02:00,2.0,0.0186,0.037,0.18
Pakistan,92,00:05:00,5.0,0.0186,0.093,0.45
Pakistan,92,00:02:00,2.0,0.0186,0.037,0.18
Pakistan,92,00:02:00,2.0,0.0186,0.037,0.18
Pakistan,92,00:13:00,13.0,0.0186,0.242,1.17
Pakistan,92,00:02:00,2.0,0.0186,0.037,0.18
Pakistan,92,00:03:00,3.0,0.0186,0.056,0.27
Pakistan,92,00:02:00,2.0,0.0186,0.037,0.18
Pakistan,92,00:03:00,3.0,0.0186,0.056,0.27
Pakistan,92,00:02:00,2.0,0.0186,0.037,0.18
Pakistan,92,00:01:00,1.0,0.0186,0.019,0.09
Pakistan,92,00:02:00,2.0,0.0186,0.037,0.18
United Arab Emirates,971,00:04:00,4.0,0.0682,0.273,0.32
Pakistan,92,00:03:00,3.0,0.0186,0.056,0.27
Pakistan,92,00:02:00,2.0,0.0186,0.037,0.18
Pakistan,92,00:03:00,3.0,0.0186,0.056,0.27
Pakistan,92,00:10:00,10.0,0.0186,0.186,0.9
Pakistan,92,00:06:00,6.0,0.0186,0.112,0.54
Pakistan,92,00:05:00,5.0,0.0186,0.093,0.45
Pakistan,92,00:02:00,2.0,0.0186,0.037,0.18
United Kingdom,44,00:01:00,1.0,0.1339,0.134,0.075
Pakistan,92,00:12:00,12.0,0.0186,0.223,1.08
United Arab Emirates,971,00:02:00,2.0,0.0682,0.136,0.16
Pakistan,92,00:04:00,4.0,0.0186,0.074,0.36
United Arab Emirates,971,00:03:00,3.0,0.0682,0.205,0.24
United Arab Emirates,971,00:06:00,6.0,0.0682,0.409,0.48
United Arab Emirates,971,00:01:00,1.0,0.0682,0.068,0.08
United Arab Emirates,971,00:03:00,3.0,0.0682,0.205,0.24
Pakistan,92,00:01:00,1.0,0.0186,0.019,0.09
Pakistan,92,00:02:00,2.0,0.0186,0.037,0.18
Pakistan,92,00:01:00,1.0,0.0186,0.019,0.09
Pakistan,92,00:01:00,1.0,0.0186,0.019,0.09
United Arab Emirates,971,00:03:00,3.0,0.0682,0.205,0.24
United Arab Emirates,971,00:05:00,5.0,0.0682,0.341,0.4
Pakistan,92,00:01:00,1.0,0.0186,0.019,0.09
United Arab Emirates,971,00:01:00,1.0,0.0682,0.068,0.08
United Arab Emirates,971,00:04:00,4.0,0.0682,0.273,0.32
Pakistan,92,00:01:00,1.0,0.0186,0.019,0.09
Pakistan,92,00:04:00,4.0,0.0186,0.074,0.36
United Arab Emirates,971,00:10:00,10.0,0.0682,0.682,0.8
Pakistan,92,00:01:00,1.0,0.0186,0.019,0.09
Pakistan,92,00:01:00,1.0,0.0186,0.019,0.09
United Arab Emirates,971,00:02:00,2.0,0.0682,0.136,0.16
Pakistan,92,00:15:00,15.0,0.0186,0.279,1.35
Pakistan,92,00:02:00,2.0,0.0186,0.037,0.18
United Arab Emirates,971,00:03:00,3.0,0.0682,0.205,0.24
United Arab Emirates,971,00:02:00,2.0,0.0682,0.136,0.16
Pakistan,92,00:02:00,2.0,0.0186,0.037,0.18
United Arab Emirates,971,00:03:00,3.0,0.0682,0.205,0.24
United Arab Emirates,971,00:01:00,1.0,0.0682,0.068,0.08
Pakistan,92,00:15:00,15.0,0.0186,0.279,1.35
United Arab Emirates,971,00:01:00,1.0,0.0682,0.068,0.08
United Arab Emirates,971,00:07:00,7.0,0.0682,0.477,0.56
United Arab Emirates,971,00:01:00,1.0,0.0682,0.068,0.08
United Arab Emirates,971,00:01:00,1.0,0.0682,0.068,0.08
Pakistan,92,00:02:00,2.0,0.0186,0.037,0.18
United Arab Emirates,971,00:01:00,1.0,0.0682,0.068,0.08
Pakistan,92,00:03:00,3.0,0.0186,0.056,0.27
United Arab Emirates,971,00:01:00,1.0,0.0682,0.068,0.08
United Arab Emirates,971,00:03:00,3.0,0.0682,0.205,0.24
Pakistan,92,00:01:00,1.0,0.0186,0.019,0.09
Pakistan,92,00:03:00,3.0,0.0186,0.056,0.27
United Arab Emirates,971,00:01:00,1.0,0.0682,0.068,0.08
Pakistan,92,00:02:00,2.0,0.0186,0.037,0.18
United Arab Emirates,971,00:01:00,1.0,0.0682,0.068,0.08
United Arab Emirates,971,00:06:00,6.0,0.0682,0.409,0.48
United Arab Emirates,971,00:07:00,7.0,0.0682,0.477,0.56
Pakistan,92,00:01:00,1.0,0.0186,0.019,0.09
Pakistan,92,00:03:00,3.0,0.0186,0.056,0.27
Pakistan,92,00:01:00,1.0,0.0186,0.019,0.09
Pakistan,92,00:02:00,2.0,0.0186,0.037,0.18
Pakistan,92,00:04:00,4.0,0.0186,0.074,0.36
United Kingdom,44,00:03:00,3.0,0.1339,0.402,0.225
United Arab Emirates,971,00:03:00,3.0,0.0682,0.205,0.24
Pakistan,92,00:34:00,34.0,0.0186,0.632,3.06
United Arab Emirates,971,00:01:00,1.0,0.0682,0.068,0.08
United Arab Emirates,971,00:03:00,3.0,0.0682,0.205,0.24
Pakistan,92,00:04:00,4.0,0.0186,0.074,0.36
Pakistan,92,00:02:00,2.0,0.0186,0.037,0.18
United Arab Emirates,971,00:02:00,2.0,0.0682,0.136,0.16
Pakistan,92,00:01:00,1.0,0.0186,0.019,0.09
Pakistan,92,00:19:00,19.0,0.0186,0.353,1.71
Pakistan,92,00:03:00,3.0,0.0186,0.056,0.27
Pakistan,92,00:01:00,1.0,0.0186,0.019,0.09
Pakistan,92,00:06:00,6.0,0.0186,0.112,0.54
United Arab Emirates,971,00:01:00,1.0,0.0682,0.068,0.08
United Arab Emirates,971,00:01:00,1.0,0.0682,0.068,0.08
United Arab Emirates,971,00:03:00,3.0,0.0682,0.205,0.24
United Arab Emirates,971,00:01:00,1.0,0.0682,0.068,0.08
Pakistan,92,00:16:00,16.0,0.0186,0.298,1.44
United Arab Emirates,971,00:01:00,1.0,0.0682,0.068,0.08
Pakistan,92,00:02:00,2.0,0.0186,0.037,0.18
Pakistan,92,00:01:00,1.0,0.0186,0.019,0.09
Pakistan,92,00:03:00,3.0,0.0186,0.056,0.27
United Arab Emirates,971,00:01:00,1.0,0.0682,0.068,0.08
Pakistan,92,00:03:00,3.0,0.0186,0.056,0.27
United Arab Emirates,971,00:01:00,1.0,0.0682,0.068,0.08
Pakistan,92,00:01:00,1.0,0.0186,0.019,0.09
Pakistan,92,00:03:00,3.0,0.0186,0.056,0.27
United Kingdom,44,00:01:00,1.0,0.1339,0.134,0.075
Saudi Arabia,966,00:04:00,4.0,0.0538,0.215,0.32
Pakistan,92,00:02:00,2.0,0.0186,0.037,0.18
Pakistan,92,00:05:00,5.0,0.0186,0.093,0.45
Jordan,962,00:01:00,1.0,0.0764,0.076,0.09
Pakistan,92,00:10:00,10.0,0.0186,0.186,0.9
Pakistan,92,00:01:00,1.0,0.0186,0.019,0.09
Pakistan,92,00:03:00,3.0,0.0186,0.056,0.27
Pakistan,92,00:04:00,4.0,0.0186,0.074,0.36
United Arab Emirates,971,00:05:00,5.0,0.0682,0.341,0.4
United Arab Emirates,971,00:03:00,3.0,0.0682,0.205,0.24
Pakistan,92,00:02:00,2.0,0.0186,0.037,0.18
Pakistan,92,00:02:00,2.0,0.0186,0.037,0.18
Pakistan,92,00:01:00,1.0,0.0186,0.019,0.09
Pakistan,92,00:04:00,4.0,0.0186,0.074,0.36
Pakistan,92,00:03:00,3.0,0.0186,0.056,0.27
United Arab Emirates,971,00:03:00,3.0,0.0682,0.205,0.24
Pakistan,92,00:04:00,4.0,0.0186,0.074,0.36
Pakistan,92,00:01:00,1.0,0.0186,0.019,0.09
Pakistan,92,00:02:00,2.0,0.0186,0.037,0.18
Pakistan,92,00:01:00,1.0,0.0186,0.019,0.09
United Arab Emirates,971,00:01:00,1.0,0.0682,0.068,0.08
Pakistan,92,00:01:00,1.0,0.0186,0.019,0.09
Pakistan,92,00:11:00,11.0,0.0186,0.205,0.99
Pakistan,92,00:01:00,1.0,0.0186,0.019,0.09
Pakistan,92,00:01:00,1.0,0.0186,0.019,0.09
United Arab Emirates,971,00:03:00,3.0,0.0682,0.205,0.24
Pakistan,92,00:01:00,1.0,0.0186,0.019,0.09
Pakistan,92,00:01:00,1.0,0.0186,0.019,0.09
Pakistan,92,00:03:00,3.0,0.0186,0.056,0.27
Pakistan,92,00:03:00,3.0,0.0186,0.056,0.27
Pakistan,92,00:03:00,3.0,0.0186,0.056,0.27
United Arab Emirates,971,00:01:00,1.0,0.0682,0.068,0.08
United Arab Emirates,971,00:05:00,5.0,0.0682,0.341,0.4
Pakistan,92,00:01:00,1.0,0.0186,0.019,0.09
United Arab Emirates,971,00:01:00,1.0,0.0682,0.068,0.08
United Arab Emirates,971,00:02:00,2.0,0.0682,0.136,0.16
Pakistan,92,00:02:00,2.0,0.0186,0.037,0.18
Pakistan,92,00:01:00,1.0,0.0186,0.019,0.09
United Arab Emirates,971,00:03:00,3.0,0.0682,0.205,0.24
Pakistan,92,00:01:00,1.0,0.0186,0.019,0.09
Saudi Arabia,966,00:01:00,1.0,0.0538,0.054,0.08
Saudi Arabia,966,00:03:00,3.0,0.0538,0.161,0.24
Pakistan,92,00:04:00,4.0,0.0186,0.074,0.36
United Arab Emirates,971,00:01:00,1.0,0.0682,0.068,0.08
Pakistan,92,00:07:00,7.0,0.0186,0.13,0.63
United Arab Emirates,971,00:02:00,2.0,0.0682,0.136,0.16
United Arab Emirates,971,00:01:00,1.0,0.0682,0.068,0.08
Pakistan,92,00:01:00,1.0,0.0186,0.019,0.09
Pakistan,92,00:01:00,1.0,0.0186,0.019,0.09
Pakistan,92,00:02:00,2.0,0.0186,0.037,0.18
Pakistan,92,00:03:00,3.0,0.0186,0.056,0.27
Pakistan,92,00:02:00,2.0,0.0186,0.037,0.18
United Arab Emirates,971,00:02:00,2.0,0.0682,0.136,0.16
Pakistan,92,00:01:00,1.0,0.0186,0.019,0.09
United Kingdom,44,00:02:00,2.0,0.1339,0.268,0.15
Pakistan,92,00:01:00,1.0,0.0186,0.019,0.09
Saudi Arabia,966,00:04:00,4.0,0.0538,0.215,0.32
Saudi Arabia,966,00:01:00,1.0,0.0538,0.054,0.08
United Arab Emirates,971,00:07:00,7.0,0.0682,0.477,0.56
Pakistan,92,00:02:00,2.0,0.0186,0.037,0.18
Pakistan,92,00:01:00,1.0,0.0186,0.019,0.09
Pakistan,92,00:01:00,1.0,0.0186,0.019,0.09
United Arab Emirates,971,00:03:00,3.0,0.0682,0.205,0.24
Pakistan,92,00:03:00,3.0,0.0186,0.056,0.27
Pakistan,92,00:01:00,1.0,0.0186,0.019,0.09
Pakistan,92,00:01:00,1.0,0.0186,0.019,0.09
Pakistan,92,00:02:00,2.0,0.0186,0.037,0.18
Pakistan,92,00:02:00,2.0,0.0186,0.037,0.18
Pakistan,92,00:01:00,1.0,0.0186,0.019,0.09
Pakistan,92,00:02:00,2.0,0.0186,0.037,0.18
Pakistan,92,00:02:00,2.0,0.0186,0.037,0.18
United Arab Emirates,971,00:09:00,9.0,0.0682,0.614,0.72
Pakistan,92,00:02:00,2.0,0.0186,0.037,0.18
United Arab Emirates,971,00:03:00,3.0,0.0682,0.205,0.24
United Arab Emirates,971,00:01:00,1.0,0.0682,0.068,0.08
Turkey,90,00:01:00,1.0,0.2881,0.288,0.1
Pakistan,92,00:02:00,2.0,0.0186,0.037,0.18
Pakistan,92,00:03:00,3.0,0.0186,0.056,0.27
Pakistan,92,00:02:00,2.0,0.0186,0.037,0.18
United Kingdom,44,00:07:00,7.0,0.1339,0.937,0.525
Saudi Arabia,966,00:03:00,3.0,0.0538,0.161,0.24
Pakistan,92,00:01:00,1.0,0.0186,0.019,0.09
Pakistan,92,00:04:00,4.0,0.0186,0.074,0.36
Pakistan,92,00:04:00,4.0,0.0186,0.074,0.36
Pakistan,92,00:04:00,4.0,0.0186,0.074,0.36
Pakistan,92,00:02:00,2.0,0.0186,0.037,0.18
Pakistan,92,00:02:00,2.0,0.0186,0.037,0.18
United Arab Emirates,971,00:01:00,1.0,0.0682,0.068,0.08
Pakistan,92,00:04:00,4.0,0.0186,0.074,0.36
Pakistan,92,00:05:00,5.0,0.0186,0.093,0.45
Pakistan,92,00:03:00,3.0,0.0186,0.056,0.27
United Arab Emirates,971,00:01:00,1.0,0.0682,0.068,0.08
Pakistan,92,00:04:00,4.0,0.0186,0.074,0.36
United Arab Emirates,971,00:08:00,8.0,0.0682,0.546,0.64
Pakistan,92,00:01:00,1.0,0.0186,0.019,0.09
Pakistan,92,00:01:00,1.0,0.0186,0.019,0.09
Pakistan,92,00:01:00,1.0,0.0186,0.019,0.09
Pakistan,92,00:01:00,1.0,0.0186,0.019,0.09
Pakistan,92,00:02:00,2.0,0.0186,0.037,0.18
Pakistan,92,00:01:00,1.0,0.0186,0.019,0.09
Pakistan,92,00:02:00,2.0,0.0186,0.037,0.18
Pakistan,92,00:06:00,6.0,0.0186,0.112,0.54
Pakistan,92,00:02:00,2.0,0.0186,0.037,0.18
Pakistan,92,00:04:00,4.0,0.0186,0.074,0.36
Pakistan,92,00:05:00,5.0,0.0186,0.093,0.45
United Arab Emirates,971,00:02:00,2.0,0.0682,0.136,0.16
United Arab Emirates,971,00:04:00,4.0,0.0682,0.273,0.32
Saudi Arabia,966,00:03:00,3.0,0.0538,0.161,0.24
Seychelles,248,00:22:00,22.0,0.3907,8.595,5.5
United Arab Emirates,971,00:01:00,1.0,0.0682,0.068,0.08
United Arab Emirates,971,00:01:00,1.0,0.0682,0.068,0.08
United Arab Emirates,971,00:01:00,1.0,0.0682,0.068,0.08
Seychelles,248,00:01:00,1.0,0.3907,0.391,0.25
United Arab Emirates,971,00:05:00,5.0,0.0682,0.341,0.4
United Arab Emirates,971,00:02:00,2.0,0.0682,0.136,0.16
United Arab Emirates,971,00:01:00,1.0,0.0682,0.068,0.08
Saudi Arabia,966,00:01:00,1.0,0.0538,0.054,0.08
Saudi Arabia,966,00:02:00,2.0,0.0538,0.108,0.16
Pakistan,92,00:04:00,4.0,0.0186,0.074,0.36
United Arab Emirates,971,00:02:00,2.0,0.0682,0.136,0.16
United Arab Emirates,971,00:01:00,1.0,0.0682,0.068,0.08
United Arab Emirates,971,00:06:00,6.0,0.0682,0.409,0.48
Pakistan,92,00:02:00,2.0,0.0186,0.037,0.18
United Arab Emirates,971,00:06:00,6.0,0.0682,0.409,0.48
United Arab Emirates,971,00:03:00,3.0,0.0682,0.205,0.24
United Arab Emirates,971,00:02:00,2.0,0.0682,0.136,0.16
United Arab Emirates,971,00:01:00,1.0,0.0682,0.068,0.08
United Arab Emirates,971,00:02:00,2.0,0.0682,0.136,0.16
United Arab Emirates,971,00:01:00,1.0,0.0682,0.068,0.08
United Arab Emirates,971,00:03:00,3.0,0.0682,0.205,0.24
United Arab Emirates,971,00:01:00,1.0,0.0682,0.068,0.08
Pakistan,92,00:12:00,12.0,0.0186,0.223,1.08
United Arab Emirates,971,00:01:00,1.0,0.0682,0.068,0.08
United Arab Emirates,971,00:04:00,4.0,0.0682,0.273,0.32
United Arab Emirates,971,00:01:00,1.0,0.0682,0.068,0.08
United Arab Emirates,971,00:02:00,2.0,0.0682,0.136,0.16
United Kingdom,44,00:03:00,3.0,0.1339,0.402,0.225
Pakistan,92,00:05:00,5.0,0.0186,0.093,0.45
United Kingdom,44,00:02:00,2.0,0.1339,0.268,0.15
United Arab Emirates,971,00:02:00,2.0,0.0682,0.136,0.16
Pakistan,92,00:04:00,4.0,0.0186,0.074,0.36
Pakistan,92,00:02:00,2.0,0.0186,0.037,0.18
Pakistan,92,00:02:00,2.0,0.0186,0.037,0.18
Pakistan,92,00:02:00,2.0,0.0186,0.037,0.18
Pakistan,92,00:02:00,2.0,0.0186,0.037,0.18
Pakistan,92,00:02:00,2.0,0.0186,0.037,0.18
United Arab Emirates,971,00:01:00,1.0,0.0682,0.068,0.08
United Arab Emirates,971,00:01:00,1.0,0.0682,0.068,0.08
United Arab Emirates,971,00:07:00,7.0,0.0682,0.477,0.56
India,91,00:01:00,1.0,0.0058,0.006,0.057
India,91,00:03:00,3.0,0.0058,0.017,0.171
Pakistan,92,00:14:00,14.0,0.0186,0.26,1.26
Pakistan,92,00:03:00,3.0,0.0186,0.056,0.27
Pakistan,92,00:04:00,4.0,0.0186,0.074,0.36
Pakistan,92,00:01:00,1.0,0.0186,0.019,0.09
Pakistan,92,00:01:00,1.0,0.0186,0.019,0.09
United Arab Emirates,971,00:03:00,3.0,0.0682,0.205,0.24
United Arab Emirates,971,00:01:00,1.0,0.0682,0.068,0.08
Seychelles,248,00:02:00,2.0,0.3907,0.781,0.5
Seychelles,248,00:01:00,1.0,0.3907,0.391,0.25
Pakistan,92,00:08:00,8.0,0.0186,0.149,0.72
Pakistan,92,00:01:00,1.0,0.0186,0.019,0.09
Pakistan,92,00:02:00,2.0,0.0186,0.037,0.18
Pakistan,92,00:01:00,1.0,0.0186,0.019,0.09
Pakistan,92,00:03:00,3.0,0.0186,0.056,0.27
China,86,00:02:00,2.0,0.0517,0.103,0.144
United Arab Emirates,971,00:04:00,4.0,0.0682,0.273,0.32
United Arab Emirates,971,00:02:00,2.0,0.0682,0.136,0.16
United Arab Emirates,971,00:04:00,4.0,0.0682,0.273,0.32
United Arab Emirates,971,00:01:00,1.0,0.0682,0.068,0.08
Pakistan,92,00:03:00,3.0,0.0186,0.056,0.27
Pakistan,92,00:02:00,2.0,0.0186,0.037,0.18
Pakistan,92,00:06:00,6.0,0.0186,0.112,0.54
United Arab Emirates,971,00:01:00,1.0,0.0682,0.068,0.08
Pakistan,92,00:03:00,3.0,0.0186,0.056,0.27
United Arab Emirates,971,00:01:00,1.0,0.0682,0.068,0.08
Pakistan,92,00:01:00,1.0,0.0186,0.019,0.09
United Arab Emirates,971,00:02:00,2.0,0.0682,0.136,0.16
United Arab Emirates,971,00:01:00,1.0,0.0682,0.068,0.08
Pakistan,92,00:02:00,2.0,0.0186,0.037,0.18
Pakistan,92,00:01:00,1.0,0.0186,0.019,0.09
Pakistan,92,00:03:00,3.0,0.0186,0.056,0.27
Pakistan,92,00:01:00,1.0,0.0186,0.019,0.09
United Arab Emirates,971,00:02:00,2.0,0.0682,0.136,0.16
United Arab Emirates,971,00:01:00,1.0,0.0682,0.068,0.08
United Arab Emirates,971,00:01:00,1.0,0.0682,0.068,0.08
Pakistan,92,00:02:00,2.0,0.0186,0.037,0.18
Pakistan,92,00:03:00,3.0,0.0186,0.056,0.27
United Arab Emirates,971,00:01:00,1.0,0.0682,0.068,0.08
United Arab Emirates,971,00:02:00,2.0,0.0682,0.136,0.16
Pakistan,92,00:02:00,2.0,0.0186,0.037,0.18
Pakistan,92,00:03:00,3.0,0.0186,0.056,0.27
Pakistan,92,00:04:00,4.0,0.0186,0.074,0.36
Pakistan,92,00:02:00,2.0,0.0186,0.037,0.18
United Arab Emirates,971,00:02:00,2.0,0.0682,0.136,0.16
Pakistan,92,00:01:00,1.0,0.0186,0.019,0.09
Pakistan,92,00:01:00,1.0,0.0186,0.019,0.09
United Arab Emirates,971,00:03:00,3.0,0.0682,0.205,0.24
Pakistan,92,00:01:00,1.0,0.0186,0.019,0.09
United Arab Emirates,971,00:01:00,1.0,0.0682,0.068,0.08
Pakistan,92,00:04:00,4.0,0.0186,0.074,0.36
South Africa,27,00:01:00,1.0,0.1253,0.125,0.1
Pakistan,92,00:01:00,1.0,0.0186,0.019,0.09
United Arab Emirates,971,00:02:00,2.0,0.0682,0.136,0.16
Pakistan,92,00:04:00,4.0,0.0186,0.074,0.36
Pakistan,92,00:01:00,1.0,0.0186,0.019,0.09
Pakistan,92,00:05:00,5.0,0.0186,0.093,0.45
Pakistan,92,00:05:00,5.0,0.0186,0.093,0.45
Pakistan,92,00:02:00,2.0,0.0186,0.037,0.18
United Arab Emirates,971,00:01:00,1.0,0.0682,0.068,0.08
Pakistan,92,00:03:00,3.0,0.0186,0.056,0.27
Pakistan,92,00:01:00,1.0,0.0186,0.019,0.09
India,91,00:02:00,2.0,0.0058,0.012,0.114
Pakistan,92,00:01:00,1.0,0.0186,0.019,0.09
Pakistan,92,00:04:00,4.0,0.0186,0.074,0.36
Pakistan,92,00:02:00,2.0,0.0186,0.037,0.18
Pakistan,92,00:03:00,3.0,0.0186,0.056,0.27
United Kingdom,44,00:01:00,1.0,0.1339,0.134,0.075
Pakistan,92,00:01:00,1.0,0.0186,0.019,0.09
Pakistan,92,00:02:00,2.0,0.0186,0.037,0.18
United Arab Emirates,971,00:01:00,1.0,0.0682,0.068,0.08
United Arab Emirates,971,00:01:00,1.0,0.0682,0.068,0.08
United Arab Emirates,971,00:08:00,8.0,0.0682,0.546,0.64
United Arab Emirates,971,00:01:00,1.0,0.0682,0.068,0.08
Pakistan,92,00:01:00,1.0,0.0186,0.019,0.09
South Africa,27,00:03:00,3.0,0.1253,0.376,0.3
Pakistan,92,00:01:00,1.0,0.0186,0.019,0.09
Pakistan,92,00:02:00,2.0,0.0186,0.037,0.18
United Arab Emirates,971,00:01:00,1.0,0.0682,0.068,0.08
United Arab Emirates,971,00:01:00,1.0,0.0682,0.068,0.08
South Africa,27,00:03:00,3.0,0.1253,0.376,0.3
United Arab Emirates,971,00:01:00,1.0,0.0682,0.068,0.08
United Arab Emirates,971,00:01:00,1.0,0.0682,0.068,0.08
United Arab Emirates,971,00:01:00,1.0,0.0682,0.068,0.08
Pakistan,92,00:02:00,2.0,0.0186,0.037,0.18
Pakistan,92,00:01:00,1.0,0.0186,0.019,0.09
Pakistan,92,00:01:00,1.0,0.0186,0.019,0.09
Saudi Arabia,966,00:03:00,3.0,0.0538,0.161,0.24
United Kingdom,44,00:02:00,2.0,0.1339,0.268,0.15
Pakistan,92,00:01:00,1.0,0.0186,0.019,0.09
Pakistan,92,00:03:00,3.0,0.0186,0.056,0.27
Pakistan,92,00:03:00,3.0,0.0186,0.056,0.27
United Kingdom,44,00:01:00,1.0,0.1339,0.134,0.075
Pakistan,92,00:06:00,6.0,0.0186,0.112,0.54
United Arab Emirates,971,00:06:00,6.0,0.0682,0.409,0.48
Pakistan,92,00:02:00,2.0,0.0186,0.037,0.18
Saudi Arabia,966,00:18:00,18.0,0.0538,0.968,1.44
United Kingdom,44,00:02:00,2.0,0.1339,0.268,0.15
Pakistan,92,00:03:00,3.0,0.0186,0.056,0.27
Pakistan,92,00:01:00,1.0,0.0186,0.019,0.09
Pakistan,92,00:03:00,3.0,0.0186,0.056,0.27
Pakistan,92,00:01:00,1.0,0.0186,0.019,0.09
Pakistan,92,00:01:00,1.0,0.0186,0.019,0.09
Pakistan,92,00:02:00,2.0,0.0186,0.037,0.18
Pakistan,92,00:02:00,2.0,0.0186,0.037,0.18
United Kingdom,44,00:02:00,2.0,0.1339,0.268,0.15
United Arab Emirates,971,00:01:00,1.0,0.0682,0.068,0.08
United Arab Emirates,971,00:03:00,3.0,0.0682,0.205,0.24
Pakistan,92,00:02:00,2.0,0.0186,0.037,0.18
Pakistan,92,00:02:00,2.0,0.0186,0.037,0.18
Pakistan,92,00:02:00,2.0,0.0186,0.037,0.18
Pakistan,92,00:03:00,3.0,0.0186,0.056,0.27
Pakistan,92,00:03:00,3.0,0.0186,0.056,0.27
Pakistan,92,00:05:00,5.0,0.0186,0.093,0.45
United Arab Emirates,971,00:03:00,3.0,0.0682,0.205,0.24
United Arab Emirates,971,00:02:00,2.0,0.0682,0.136,0.16
United Arab Emirates,971,00:01:00,1.0,0.0682,0.068,0.08
United Arab Emirates,971,00:04:00,4.0,0.0682,0.273,0.32
Pakistan,92,00:02:00,2.0,0.0186,0.037,0.18
United Arab Emirates,971,00:03:00,3.0,0.0682,0.205,0.24
Pakistan,92,00:02:00,2.0,0.0186,0.037,0.18
United Arab Emirates,971,00:01:00,1.0,0.0682,0.068,0.08
Pakistan,92,00:01:00,1.0,0.0186,0.019,0.09
Pakistan,92,00:01:00,1.0,0.0186,0.019,0.09
United Arab Emirates,971,00:02:00,2.0,0.0682,0.136,0.16
Pakistan,92,00:02:00,2.0,0.0186,0.037,0.18
United Arab Emirates,971,00:02:00,2.0,0.0682,0.136,0.16
United Arab Emirates,971,00:01:00,1.0,0.0682,0.068,0.08
Pakistan,92,00:02:00,2.0,0.0186,0.037,0.18
Pakistan,92,00:01:00,1.0,0.0186,0.019,0.09
Pakistan,92,00:02:00,2.0,0.0186,0.037,0.18
Seychelles,248,00:01:00,1.0,0.3907,0.391,0.25
United Arab Emirates,971,00:02:00,2.0,0.0682,0.136,0.16
United Arab Emirates,971,00:04:00,4.0,0.0682,0.273,0.32
Pakistan,92,00:01:00,1.0,0.0186,0.019,0.09
United Kingdom,44,00:04:00,4.0,0.1339,0.536,0.3
Pakistan,92,00:02:00,2.0,0.0186,0.037,0.18
Pakistan,92,00:03:00,3.0,0.0186,0.056,0.27
United Arab Emirates,971,00:03:00,3.0,0.0682,0.205,0.24
Pakistan,92,00:01:00,1.0,0.0186,0.019,0.09
United Arab Emirates,971,00:01:00,1.0,0.0682,0.068,0.08
Pakistan,92,00:06:00,6.0,0.0186,0.112,0.54
Pakistan,92,00:05:00,5.0,0.0186,0.093,0.45
Pakistan,92,00:06:00,6.0,0.0186,0.112,0.54
Pakistan,92,00:04:00,4.0,0.0186,0.074,0.36
Pakistan,92,00:02:00,2.0,0.0186,0.037,0.18
Pakistan,92,00:03:00,3.0,0.0186,0.056,0.27
United Arab Emirates,971,00:06:00,6.0,0.0682,0.409,0.48
United Arab Emirates,971,00:02:00,2.0,0.0682,0.136,0.16
United Arab Emirates,971,00:03:00,3.0,0.0682,0.205,0.24
Pakistan,92,00:03:00,3.0,0.0186,0.056,0.27
Pakistan,92,00:05:00,5.0,0.0186,0.093,0.45
Pakistan,92,00:02:00,2.0,0.0186,0.037,0.18
Pakistan,92,00:01:00,1.0,0.0186,0.019,0.09
Pakistan,92,00:01:00,1.0,0.0186,0.019,0.09
United Arab Emirates,971,00:01:00,1.0,0.0682,0.068,0.08
United Arab Emirates,971,00:01:00,1.0,0.0682,0.068,0.08
United Arab Emirates,971,00:06:00,6.0,0.0682,0.409,0.48
United Arab Emirates,971,00:03:00,3.0,0.0682,0.205,0.24
Pakistan,92,00:03:00,3.0,0.0186,0.056,0.27
United Arab Emirates,971,00:01:00,1.0,0.0682,0.068,0.08
United Arab Emirates,971,00:01:00,1.0,0.0682,0.068,0.08
United Arab Emirates,971,00:01:00,1.0,0.0682,0.068,0.08
United Arab Emirates,971,00:02:00,2.0,0.0682,0.136,0.16
Pakistan,92,00:04:00,4.0,0.0186,0.074,0.36
United Arab Emirates,971,00:02:00,2.0,0.0682,0.136,0.16
Pakistan,92,00:09:00,9.0,0.0186,0.167,0.81
United Arab Emirates,971,00:01:00,1.0,0.0682,0.068,0.08
Pakistan,92,00:01:00,1.0,0.0186,0.019,0.09
United Arab Emirates,971,00:02:00,2.0,0.0682,0.136,0.16
United Arab Emirates,971,00:01:00,1.0,0.0682,0.068,0.08
Pakistan,92,00:01:00,1.0,0.0186,0.019,0.09
Pakistan,92,00:01:00,1.0,0.0186,0.019,0.09
Pakistan,92,00:01:00,1.0,0.0186,0.019,0.09
United Arab Emirates,971,00:01:00,1.0,0.0682,0.068,0.08
Pakistan,92,00:01:00,1.0,0.0186,0.019,0.09
United Arab Emirates,971,00:01:00,1.0,0.0682,0.068,0.08
Pakistan,92,00:02:00,2.0,0.0186,0.037,0.18
Pakistan,92,00:13:00,13.0,0.0186,0.242,1.17
United Kingdom,44,00:04:00,4.0,0.1339,0.536,0.3
Pakistan,92,00:02:00,2.0,0.0186,0.037,0.18
Pakistan,92,00:03:00,3.0,0.0186,0.056,0.27
Pakistan,92,00:02:00,2.0,0.0186,0.037,0.18
Pakistan,92,00:02:00,2.0,0.0186,0.037,0.18
United Kingdom,44,00:02:00,2.0,0.1339,0.268,0.15
Pakistan,92,00:01:00,1.0,0.0186,0.019,0.09
Pakistan,92,00:01:00,1.0,0.0186,0.019,0.09
Pakistan,92,00:01:00,1.0,0.0186,0.019,0.09
United Kingdom,44,00:03:00,3.0,0.1339,0.402,0.225
Mauritania,222,00:01:00,1.0,0.3322,0.332,0.185
Pakistan,92,00:03:00,3.0,0.0186,0.056,0.27
Pakistan,92,00:04:00,4.0,0.0186,0.074,0.36
United Kingdom,44,00:02:00,2.0,0.1339,0.268,0.26
United Arab Emirates,971,00:03:00,3.0,0.0682,0.205,0.24
United Arab Emirates,971,00:06:00,6.0,0.0682,0.409,0.48
Kenya,254,00:01:00,1.0,0.3784,0.378,0.19
Kenya,254,00:03:00,3.0,0.3784,1.135,0.57
United Arab Emirates,971,00:05:00,5.0,0.0682,0.341,0.4
United Arab Emirates,971,00:01:00,1.0,0.0682,0.068,0.08
United Arab Emirates,971,00:04:00,4.0,0.0682,0.273,0.32
United Arab Emirates,971,00:06:00,6.0,0.0682,0.409,0.48
United Arab Emirates,971,00:01:00,1.0,0.0682,0.068,0.08
United Arab Emirates,971,00:04:00,4.0,0.0682,0.273,0.32
United Kingdom,44,00:01:00,1.0,0.1339,0.134,0.13
United Arab Emirates,971,00:08:00,8.0,0.0682,0.546,0.64
United Arab Emirates,971,00:01:00,1.0,0.0682,0.068,0.08
Pakistan,92,00:03:00,3.0,0.0186,0.056,0.27
Pakistan,92,00:07:00,7.0,0.0186,0.13,0.63
United Arab Emirates,971,00:03:00,3.0,0.0682,0.205,0.24
United Arab Emirates,971,00:05:00,5.0,0.0682,0.341,0.4
Pakistan,92,00:06:00,6.0,0.0186,0.112,0.54
Pakistan,92,00:10:00,10.0,0.0186,0.186,0.9
United Arab Emirates,971,00:01:00,1.0,0.0682,0.068,0.08
Pakistan,92,00:03:00,3.0,0.0186,0.056,0.27
United Arab Emirates,971,00:05:00,5.0,0.0682,0.341,0.4
Pakistan,92,00:03:00,3.0,0.0186,0.056,0.27
Pakistan,92,00:04:00,4.0,0.0186,0.074,0.36
United Arab Emirates,971,00:04:00,4.0,0.0682,0.273,0.32
Pakistan,92,00:02:00,2.0,0.0186,0.037,0.18
Pakistan,92,00:02:00,2.0,0.0186,0.037,0.18
United Arab Emirates,971,00:01:00,1.0,0.0682,0.068,0.08
United Arab Emirates,971,00:02:00,2.0,0.0682,0.136,0.16
United Arab Emirates,971,00:02:00,2.0,0.0682,0.136,0.16
Pakistan,92,00:01:00,1.0,0.0186,0.019,0.09
United Arab Emirates,971,00:01:00,1.0,0.0682,0.068,0.08
United Arab Emirates,971,00:02:00,2.0,0.0682,0.136,0.16
Pakistan,92,00:02:00,2.0,0.0186,0.037,0.18
United Kingdom,44,00:04:00,4.0,0.1339,0.536,0.3
Pakistan,92,00:02:00,2.0,0.0186,0.037,0.18
Pakistan,92,00:05:00,5.0,0.0186,0.093,0.45
United Arab Emirates,971,00:03:00,3.0,0.0682,0.205,0.24
Pakistan,92,00:03:00,3.0,0.0186,0.056,0.27
United Arab Emirates,971,00:01:00,1.0,0.0682,0.068,0.08
Pakistan,92,00:02:00,2.0,0.0186,0.037,0.18
Seychelles,248,00:03:00,3.0,0.3907,1.172,0.75
South Africa,27,00:01:00,1.0,0.1253,0.125,0.1
Pakistan,92,00:02:00,2.0,0.0186,0.037,0.18
Pakistan,92,00:05:00,5.0,0.0186,0.093,0.45
United Kingdom,44,00:01:00,1.0,0.1339,0.134,0.075
Pakistan,92,00:02:00,2.0,0.0186,0.037,0.18
Pakistan,92,00:01:00,1.0,0.0186,0.019,0.09
Pakistan,92,00:01:00,1.0,0.0186,0.019,0.09
Pakistan,92,00:02:00,2.0,0.0186,0.037,0.18
Pakistan,92,00:05:00,5.0,0.0186,0.093,0.45
Pakistan,92,00:04:00,4.0,0.0186,0.074,0.36
Pakistan,92,00:01:00,1.0,0.0186,0.019,0.09
United Kingdom,44,00:04:00,4.0,0.1339,0.536,0.3
Pakistan,92,00:02:00,2.0,0.0186,0.037,0.18
Pakistan,92,00:05:00,5.0,0.0186,0.093,0.45
United Kingdom,44,00:13:00,13.0,0.1339,1.741,0.975
Pakistan,92,00:01:00,1.0,0.0186,0.019,0.09
United Kingdom,44,00:13:00,13.0,0.1339,1.741,0.975
Pakistan,92,00:02:00,2.0,0.0186,0.037,0.18
United Kingdom,44,00:03:00,3.0,0.1339,0.402,0.225
Pakistan,92,00:02:00,2.0,0.0186,0.037,0.18
United Kingdom,44,00:05:00,5.0,0.1339,0.669,0.375
Pakistan,92,00:01:00,1.0,0.0186,0.019,0.09
United Arab Emirates,971,00:03:00,3.0,0.0682,0.205,0.24
United Arab Emirates,971,00:01:00,1.0,0.0682,0.068,0.08
United Arab Emirates,971,00:02:00,2.0,0.0682,0.136,0.16
Pakistan,92,00:03:00,3.0,0.0186,0.056,0.27
Pakistan,92,00:05:00,5.0,0.0186,0.093,0.45
United Arab Emirates,971,00:02:00,2.0,0.0682,0.136,0.16
United Arab Emirates,971,00:01:00,1.0,0.0682,0.068,0.08
United Arab Emirates,971,00:02:00,2.0,0.0682,0.136,0.16
United Arab Emirates,971,00:01:00,1.0,0.0682,0.068,0.08
United Arab Emirates,971,00:01:00,1.0,0.0682,0.068,0.08
Pakistan,92,00:04:00,4.0,0.0186,0.074,0.36
United Arab Emirates,971,00:04:00,4.0,0.0682,0.273,0.32
Pakistan,92,00:03:00,3.0,0.0186,0.056,0.27
United Arab Emirates,971,00:02:00,2.0,0.0682,0.136,0.16
United Arab Emirates,971,00:03:00,3.0,0.0682,0.205,0.24
Pakistan,92,00:02:00,2.0,0.0186,0.037,0.18
United Arab Emirates,971,00:04:00,4.0,0.0682,0.273,0.32
Pakistan,92,00:08:00,8.0,0.0186,0.149,0.72
United Arab Emirates,971,00:13:00,13.0,0.0682,0.887,1.04
United Arab Emirates,971,00:01:00,1.0,0.0682,0.068,0.08
Pakistan,92,00:02:00,2.0,0.0186,0.037,0.18
Pakistan,92,00:01:00,1.0,0.0186,0.019,0.09
United Arab Emirates,971,00:02:00,2.0,0.0682,0.136,0.16
Pakistan,92,00:02:00,2.0,0.0186,0.037,0.18
Pakistan,92,00:07:00,7.0,0.0186,0.13,0.63
Pakistan,92,00:02:00,2.0,0.0186,0.037,0.18
Pakistan,92,00:01:00,1.0,0.0186,0.019,0.09
Pakistan,92,00:01:00,1.0,0.0186,0.019,0.09
Pakistan,92,00:03:00,3.0,0.0186,0.056,0.27
Pakistan,92,00:02:00,2.0,0.0186,0.037,0.18
Pakistan,92,00:02:00,2.0,0.0186,0.037,0.18
Pakistan,92,00:02:00,2.0,0.0186,0.037,0.18
Pakistan,92,00:04:00,4.0,0.0186,0.074,0.36
United Arab Emirates,971,00:04:00,4.0,0.0682,0.273,0.32
Pakistan,92,00:01:00,1.0,0.0186,0.019,0.09
Pakistan,92,00:14:00,14.0,0.0186,0.26,1.26
Pakistan,92,00:01:00,1.0,0.0186,0.019,0.09
United Kingdom,44,00:01:00,1.0,0.1339,0.134,0.075
Pakistan,92,00:05:00,5.0,0.0186,0.093,0.45
United Arab Emirates,971,00:01:00,1.0,0.0682,0.068,0.08
United Kingdom,44,00:02:00,2.0,0.1339,0.268,0.15
Pakistan,92,00:14:00,14.0,0.0186,0.26,1.26
Pakistan,92,00:02:00,2.0,0.0186,0.037,0.18
Pakistan,92,00:05:00,5.0,0.0186,0.093,0.45
Pakistan,92,00:04:00,4.0,0.0186,0.074,0.36
United Arab Emirates,971,00:02:00,2.0,0.0682,0.136,0.16
Pakistan,92,00:02:00,2.0,0.0186,0.037,0.18
Pakistan,92,00:01:00,1.0,0.0186,0.019,0.09
Pakistan,92,00:05:00,5.0,0.0186,0.093,0.45
United Arab Emirates,971,00:03:00,3.0,0.0682,0.205,0.24
Pakistan,92,00:03:00,3.0,0.0186,0.056,0.27
United Arab Emirates,971,00:01:00,1.0,0.0682,0.068,0.08
United Arab Emirates,971,00:02:00,2.0,0.0682,0.136,0.16
Pakistan,92,00:11:00,11.0,0.0186,0.205,0.99
United Arab Emirates,971,00:01:00,1.0,0.0682,0.068,0.08
United Arab Emirates,971,00:01:00,1.0,0.0682,0.068,0.08
Saudi Arabia,966,00:11:00,11.0,0.0538,0.592,0.88
United Arab Emirates,971,00:02:00,2.0,0.0682,0.136,0.16
United Arab Emirates,971,00:02:00,2.0,0.0682,0.136,0.16
Pakistan,92,00:04:00,4.0,0.0186,0.074,0.36
United Arab Emirates,971,00:01:00,1.0,0.0682,0.068,0.08
United Arab Emirates,971,00:01:00,1.0,0.0682,0.068,0.08
United Arab Emirates,971,00:01:00,1.0,0.0682,0.068,0.08
United Arab Emirates,971,00:03:00,3.0,0.0682,0.205,0.24
Saudi Arabia,966,00:08:00,8.0,0.0538,0.43,0.64
Pakistan,92,00:05:00,5.0,0.0186,0.093,0.45
Pakistan,92,00:07:00,7.0,0.0186,0.13,0.63
Pakistan,92,00:01:00,1.0,0.0186,0.019,0.09
India,91,00:02:00,2.0,0.0058,0.012,0.114
Pakistan,92,00:03:00,3.0,0.0186,0.056,0.27
United Arab Emirates,971,00:02:00,2.0,0.0682,0.136,0.16
Pakistan,92,00:01:00,1.0,0.0186,0.019,0.09
Pakistan,92,00:03:00,3.0,0.0186,0.056,0.27
United Arab Emirates,971,00:01:00,1.0,0.0682,0.068,0.08
Seychelles,248,00:10:00,10.0,0.3907,3.907,2.5
Seychelles,248,00:02:00,2.0,0.3907,0.781,0.5
United Kingdom,44,00:02:00,2.0,0.1339,0.268,0.15
Pakistan,92,00:01:00,1.0,0.0186,0.019,0.09
Saudi Arabia,966,00:02:00,2.0,0.0538,0.108,0.16
Pakistan,92,00:06:00,6.0,0.0186,0.112,0.54
Pakistan,92,00:27:00,27.0,0.0186,0.502,2.43
Pakistan,92,00:04:00,4.0,0.0186,0.074,0.36
United Arab Emirates,971,00:02:00,2.0,0.0682,0.136,0.16
United Arab Emirates,971,00:02:00,2.0,0.0682,0.136,0.16
Pakistan,92,00:03:00,3.0,0.0186,0.056,0.27
Pakistan,92,00:03:00,3.0,0.0186,0.056,0.27
Pakistan,92,00:05:00,5.0,0.0186,0.093,0.45
Pakistan,92,00:03:00,3.0,0.0186,0.056,0.27
Pakistan,92,00:04:00,4.0,0.0186,0.074,0.36
Pakistan,92,00:03:00,3.0,0.0186,0.056,0.27
United Kingdom,44,00:02:00,2.0,0.1339,0.268,0.15
Pakistan,92,00:01:00,1.0,0.0186,0.019,0.09
Pakistan,92,00:06:00,6.0,0.0186,0.112,0.54
United Arab Emirates,971,00:02:00,2.0,0.0682,0.136,0.16
United Arab Emirates,971,00:02:00,2.0,0.0682,0.136,0.16
Kenya,254,00:01:00,1.0,0.3784,0.378,0.19
Kenya,254,00:01:00,1.0,0.3784,0.378,0.19
Kenya,254,00:01:00,1.0,0.3784,0.378,0.19
Pakistan,92,00:07:00,7.0,0.0186,0.13,0.63
United Arab Emirates,971,00:04:00,4.0,0.0682,0.273,0.32
Kenya,254,00:01:00,1.0,0.3784,0.378,0.19
United Arab Emirates,971,00:03:00,3.0,0.0682,0.205,0.24
United Arab Emirates,971,00:04:00,4.0,0.0682,0.273,0.32
Pakistan,92,00:02:00,2.0,0.0186,0.037,0.18
United Arab Emirates,971,00:04:00,4.0,0.0682,0.273,0.32
United Arab Emirates,971,00:01:00,1.0,0.0682,0.068,0.08
Pakistan,92,00:03:00,3.0,0.0186,0.056,0.27
United Arab Emirates,971,00:03:00,3.0,0.0682,0.205,0.24
United Arab Emirates,971,00:01:00,1.0,0.0682,0.068,0.08
United Arab Emirates,971,00:02:00,2.0,0.0682,0.136,0.16
United Arab Emirates,971,00:04:00,4.0,0.0682,0.273,0.32
United Arab Emirates,971,00:02:00,2.0,0.0682,0.136,0.16
Pakistan,92,00:02:00,2.0,0.0186,0.037,0.18
Pakistan,92,00:05:00,5.0,0.0186,0.093,0.45
United Arab Emirates,971,00:02:00,2.0,0.0682,0.136,0.16
Pakistan,92,00:18:00,18.0,0.0186,0.335,1.62
Pakistan,92,00:03:00,3.0,0.0186,0.056,0.27
Pakistan,92,00:03:00,3.0,0.0186,0.056,0.27
United Arab Emirates,971,00:03:00,3.0,0.0682,0.205,0.24
Pakistan,92,00:05:00,5.0,0.0186,0.093,0.45
Pakistan,92,00:04:00,4.0,0.0186,0.074,0.36
United Arab Emirates,971,00:01:00,1.0,0.0682,0.068,0.08
United Arab Emirates,971,00:01:00,1.0,0.0682,0.068,0.08
United Arab Emirates,971,00:08:00,8.0,0.0682,0.546,0.64
United Arab Emirates,971,00:03:00,3.0,0.0682,0.205,0.24
United Arab Emirates,971,00:01:00,1.0,0.0682,0.068,0.08
United Arab Emirates,971,00:01:00,1.0,0.0682,0.068,0.08
United Arab Emirates,971,00:01:00,1.0,0.0682,0.068,0.08
Pakistan,92,00:03:00,3.0,0.0186,0.056,0.27
Pakistan,92,00:02:00,2.0,0.0186,0.037,0.18
Pakistan,92,00:02:00,2.0,0.0186,0.037,0.18
United Kingdom,44,00:07:00,7.0,0.1339,0.937,0.525
Pakistan,92,00:02:00,2.0,0.0186,0.037,0.18
Pakistan,92,00:01:00,1.0,0.0186,0.019,0.09
Pakistan,92,00:02:00,2.0,0.0186,0.037,0.18
Pakistan,92,00:01:00,1.0,0.0186,0.019,0.09
United Kingdom,44,00:06:00,6.0,0.1339,0.803,0.45
United Arab Emirates,971,00:03:00,3.0,0.0682,0.205,0.24
Pakistan,92,00:01:00,1.0,0.0186,0.019,0.09
Pakistan,92,00:04:00,4.0,0.0186,0.074,0.36
Pakistan,92,00:05:00,5.0,0.0186,0.093,0.45
Pakistan,92,00:05:00,5.0,0.0186,0.093,0.45
United Arab Emirates,971,00:01:00,1.0,0.0682,0.068,0.08
Pakistan,92,00:02:00,2.0,0.0186,0.037,0.18
Pakistan,92,00:06:00,6.0,0.0186,0.112,0.54
Pakistan,92,00:07:00,7.0,0.0186,0.13,0.63
Pakistan,92,00:09:00,9.0,0.0186,0.167,0.81
Pakistan,92,00:02:00,2.0,0.0186,0.037,0.18
Pakistan,92,00:02:00,2.0,0.0186,0.037,0.18
Pakistan,92,00:01:00,1.0,0.0186,0.019,0.09
Pakistan,92,00:02:00,2.0,0.0186,0.037,0.18
Pakistan,92,00:02:00,2.0,0.0186,0.037,0.18
Pakistan,92,00:02:00,2.0,0.0186,0.037,0.18
Pakistan,92,00:04:00,4.0,0.0186,0.074,0.36
Pakistan,92,00:14:00,14.0,0.0186,0.26,1.26
United Arab Emirates,971,00:02:00,2.0,0.0682,0.136,0.16
Pakistan,92,00:05:00,5.0,0.0186,0.093,0.45
United Arab Emirates,971,00:03:00,3.0,0.0682,0.205,0.24
Pakistan,92,00:02:00,2.0,0.0186,0.037,0.18
Seychelles,248,00:02:00,2.0,0.3907,0.781,0.5
Pakistan,92,00:02:00,2.0,0.0186,0.037,0.18
Pakistan,92,00:02:00,2.0,0.0186,0.037,0.18
Thailand,66,00:03:00,3.0,0.0285,0.086,0.27
China,86,00:03:00,3.0,0.0517,0.155,0.216
Pakistan,92,00:08:00,8.0,0.0186,0.149,0.72
Pakistan,92,00:02:00,2.0,0.0186,0.037,0.18
Seychelles,248,00:02:00,2.0,0.3907,0.781,0.5
Pakistan,92,00:02:00,2.0,0.0186,0.037,0.18
Pakistan,92,00:02:00,2.0,0.0186,0.037,0.18
United Arab Emirates,971,00:07:00,7.0,0.0682,0.477,0.56
Pakistan,92,00:03:00,3.0,0.0186,0.056,0.27
United Kingdom,44,00:06:00,6.0,0.1339,0.803,0.45
United Kingdom,44,00:01:00,1.0,0.1339,0.134,0.075
Pakistan,92,00:02:00,2.0,0.0186,0.037,0.18
Pakistan,92,00:03:00,3.0,0.0186,0.056,0.27
Pakistan,92,00:01:00,1.0,0.0186,0.019,0.09
Pakistan,92,00:02:00,2.0,0.0186,0.037,0.18
Pakistan,92,00:02:00,2.0,0.0186,0.037,0.18
Pakistan,92,00:02:00,2.0,0.0186,0.037,0.18
United Kingdom,44,00:04:00,4.0,0.1339,0.536,0.3
Pakistan,92,00:02:00,2.0,0.0186,0.037,0.18
United Arab Emirates,971,00:10:00,10.0,0.0682,0.682,0.8
United Arab Emirates,971,00:02:00,2.0,0.0682,0.136,0.16
Pakistan,92,00:01:00,1.0,0.0186,0.019,0.09
Pakistan,92,00:04:00,4.0,0.0186,0.074,0.36
Pakistan,92,00:01:00,1.0,0.0186,0.019,0.09
United Arab Emirates,971,00:08:00,8.0,0.0682,0.546,0.64
Pakistan,92,00:05:00,5.0,0.0186,0.093,0.45
United Arab Emirates,971,00:01:00,1.0,0.0682,0.068,0.08
United Arab Emirates,971,00:01:00,1.0,0.0682,0.068,0.08
United Arab Emirates,971,00:01:00,1.0,0.0682,0.068,0.08
Pakistan,92,00:05:00,5.0,0.0186,0.093,0.45
Pakistan,92,00:04:00,4.0,0.0186,0.074,0.36
United Arab Emirates,971,00:01:00,1.0,0.0682,0.068,0.08
Pakistan,92,00:01:00,1.0,0.0186,0.019,0.09
Pakistan,92,00:01:00,1.0,0.0186,0.019,0.09
Pakistan,92,00:02:00,2.0,0.0186,0.037,0.18
United Arab Emirates,971,00:07:00,7.0,0.0682,0.477,0.56
Pakistan,92,00:03:00,3.0,0.0186,0.056,0.27
United Arab Emirates,971,00:01:00,1.0,0.0682,0.068,0.08
Pakistan,92,00:03:00,3.0,0.0186,0.056,0.27
Pakistan,92,00:02:00,2.0,0.0186,0.037,0.18
Pakistan,92,00:11:00,11.0,0.0186,0.205,0.99
United Arab Emirates,971,00:01:00,1.0,0.0682,0.068,0.08
Pakistan,92,00:01:00,1.0,0.0186,0.019,0.09
Pakistan,92,00:01:00,1.0,0.0186,0.019,0.09
Pakistan,92,00:04:00,4.0,0.0186,0.074,0.36
Kenya,254,00:01:00,1.0,0.3784,0.378,0.19
Kenya,254,00:01:00,1.0,0.3784,0.378,0.19
Pakistan,92,00:02:00,2.0,0.0186,0.037,0.18
United Kingdom,44,00:02:00,2.0,0.1339,0.268,0.15
Pakistan,92,00:03:00,3.0,0.0186,0.056,0.27
United Arab Emirates,971,00:10:00,10.0,0.0682,0.682,0.8
Pakistan,92,00:10:00,10.0,0.0186,0.186,0.9
Total,,,3103.00,,BHD 215.53,BHD 307.44
