Afghanistan,93,0.06536
Alaska,1907,0.0114
Albania,355,0.288268
Algeria,213,0.201742
American Samoa,684,0.00931
Andorra,376,0.041268
Angola,244,0.0323
Anguilla,1264,0.082992
Antigua,1268,0.06783
Argentina,54,0.05871
Armenia,374,0.07372
Aruba,297,0.06973
Ascension Island,247,0.532
Australia,61,0.052174
Austria,43,4.323982
Azerbaijan,994,0.104614
Bahamas,1242,0.0399
Bangladesh,880,0.008436
Barbados,1246,0.06916
Belarus,375,0.27132
Belgium,32,0.153672
Belize,501,0.068932
Benin,229,0.113354
Bermuda,1441,0.01026
Bhutan,975,0.01653
Bolivia,591,0.064676
Bosnia,387,0.120726
Botswana,267,0.073758
Brazil,55,0.0209
Brunei,673,0.010488
Bulgaria,359,0.043472
Burkina Faso,226,0.108414
Burundi,257,0.1729
Cambodia,855,0.022724
Cameroon,237,0.112936
Canary Island,3428,0.002014
Cape Verde Island,238,0.05985
Cayman Islands,1345,0.058786
Central African Republic,236,0.1254
Chad,235,0.19095
Chile,56,0.31008
China,86,0.038038
Colombia,57,0.01786
Comoros Island,269,0.082308
Congo,243,0.134938
Congo,242,0.134938
Cook Islands,682,0.244606
Costa Rica,506,0.0247
Cote D Ivoire,225,0.118104
Croatia,385,0.105374
Cuba,53,0.23712
Cyprus,357,0.017176
Czech Republic,420,0.025688
Denmark,45,0.005434
Diego Garcia,246,0.589
Djibouti,253,0.1045
Dominica,1767,0.07562
Dominican Republic,1809,0.02166
Ecuador,593,0.064638
Egypt,20,0.04275
El Salvador,503,0.058254
Equatorial Guinea,240,0.14782
Eritrea,291,0.07448
Estonia,372,0.223896
Ethiopia,251,0.072542
Falkland Islands,500,0.44726
Faroe Island,298,0.045372
Micronesia,691,0.171
Fiji,679,0.08816
Finland,358,0.087362
France,33,0.119624
Guyana,594,0.082232
French Polynesia,689,0.07562
Gabon,241,0.14155
Gambia,220,0.38
Georgia,995,0.133
Germany,49,0.917586
Ghana,233,0.09177
Gibraltar,350,0.052098
Greece,30,0.072238
Greenland,299,0.184414
Grenada,1473,0.073188
Guadeloupe,590,0.01026
Guam,1671,0.005624
Guatemala,502,0.047652
Guinea Bissau,245,0.16796
Guinea Republic,224,0.14326
Guyana,592,0.082232
Haiti,509,0.09386
Hawaii,1808,0.006118
Honduras,504,0.055062
Hong Kong,852,0.007448
Hungary,36,0.025042
Iceland,354,0.007258
India,91,0.003648
Indonesia,62,0.02071
Inmarsat Bgan,87077,1.9228
Inmarsat Bgan HSD,87078,1.9228
Inmarsat Globalstar M EA,881,0.912
Inmarsat SNAC Sky,8705,1.616634
Inmarsat SNAC B,87036,2.85
Inmarsat SNAC B HSD,87039,2.735316
Inmarsat SNAC M,87068,2.0482
Inmarsat SNAC M4 HSD,87060,2.0482
Inmarsat SNAC MM,87076,1.614962
Iran,98,0.053694
Iraq,964,0.068894
Ireland,353,0.033668
Iridium (Global),8816,2.698
Iridium (limited),8817,2.698
Italy,39,0.177384
Jamaica,1876,0.05852
Japan,81,0.018012
Jordan,962,0.05624
Kazakhstan,73,0.04408
Kenya,254,0.077938
Kiribati,686,0.374034
Korea (North),850,0.77178
Korea (South),82,0.005282
Kuwait,965,0.02375
Kyrgyzstan,996,0.171
Laos,856,0.024016
Latvia,371,0.197562
Lebanon,961,0.04997
Lesotho,266,0.1216
Liberia,231,0.13965
Libya,218,0.111606
Liechtenstein,423,0.05757
Lithuania,370,0.289788
Luxembourg,352,0.007068
Macao,853,0.0304
Macedonia,389,0.118066
Madagascar,261,0.25346
Malawi,265,0.114304
Malaysia,60,0.004522
Maldives,960,0.25555
Mali,223,0.1748
Malta,356,0.006232
Mariana Islands,1670,0.010982
Marshall Islands,692,0.077444
Martinique,596,0.01178
Mauritania,222,0.171
Mauritius,230,0.0494
Mexico,52,0.00817
Monaco,377,0.120726
Mongolia,976,0.005738
Montserrat,1664,0.08664
Morocco,212,0.112822
Mozambique,258,0.0969
Myanmar,95,0.069806
Namibia,264,0.017138
Nauru Island,674,0.76
Nepal,977,0.047538
Netherlands Antilles,599,0.043776
Netherlands,31,0.043776
New Caledonia,687,0.375478
New Zealand,64,0.01102
Nicaragua,505,0.079686
Niger,227,0.11685
Nigeria,234,0.008208
Norway,47,0.52687
Oman,968,0.079838
Pakistan,92,0.01368
Palau,680,0.193838
Palestine,970,0.05833
Panama,507,0.039634
Papua New Guinea,675,0.6156
Paraguay,595,0.031502
Peru,51,0.100738
Philippines,63,0.052896
Poland,48,0.084208
Portugal,351,1.005404
Puerto Rico,1787,0.001862
Qatar,974,0.057608
Reunion,262,0.010602
Romania,40,0.004826
Russia,7,0.06346
Western Samoa,685,0.342
San Marino,378,0.417088
Sao Tome And Principe,239,0.399
Saudi Arabia,966,0.03724
Senegal,221,0.126882
Seychelles,248,0.1919
Sierra Leone,232,0.14288
Singapore,65,0.002128
Slovakia,421,0.025042
Slovenia,386,0.128212
Solomon Islands,677,0.39634
Somalia,252,0.1748
South Africa,27,0.041724
Spain,34,0.091466
Sri Lanka,94,0.05206
St Helena,290,0.444296
St Kitts And Nevis,1869,0.070528
St Lucia,1758,0.07562
St Pierre And Miquelo,508,0.126122
St Vincent,1784,0.132658
Sudan,249,0.125362
Surinam,597,0.091124
Swaziland,268,0.04864
Sweden,46,0.004978
Switzerland,41,0.131708
Syria,963,0.03895
Taiwan,886,0.030856
Tajikistan,992,0.050958
Tanzania,255,0.0969
Thailand,66,0.019988
Thuraya,882,0.505248
Togo,228,0.1197
Trinidad And Tobago,1868,0.07334
Tunisia,216,0.886882
Turks And Caicos Island,1649,0.077938
Turkey,90,0.047196
Turkmenistan,993,0.0456
Tuvalu,688,0.688332
United Arab Emirates,971,0.05016
Uganda,256,0.108148
United Kingdom,44,0.08113
Uruguay,598,0.05985
United States,1,0.290738
Uzbekistan,998,0.02166
Vanuatu,678,0.76
Vatican City,39669,0.001482
Venezuela,58,0.08113
Vietnam,84,0.02166
Virgin Island (UK),1284,0.075658
Virgin Island (USA),1340,0.005282
Wallis And Futuna,681,0.127984
Yemen,967,0.047424
Serbia,381,0.120726
Serbia,381,0.120726
Zambia,260,0.15276
Zimbabwe,263,0.14326
Bahrain,973,0.1368
